-Run-		gsis.ImplementPcInRbac1-Max_Number_of_Roles	gsis.ImplementPcInRbac1-Maximum_State_Size	gsis.ImplementPcInRbac1-Maximum_Workload_Size	gsis.ImplementPcInRbac1-Number_Of_Actors	gsis.ImplementPcInRbac1-Number_Of_Authors	gsis.ImplementPcInRbac1-Number_Of_Objects	gsis.ImplementPcInRbac1-Number_Of_Reviewers	gsis.ImplementPcInRbac1-Permissions_Per_Role(Replace Percentage)	gsis.ImplementPcInRbac1-Proportion_AC_State_Change	gsis.ImplementPcInRbac1-Proportion_Workload_State_Change	gsis.ImplementPcInRbac1-Scheme_IO	gsis.ImplementPcInRbac1-Stutter_Avg	gsis.ImplementPcInRbac1-Stutter_Prop	gsis.ImplementPcInRbac1-Total_Stutter_Cost	gsis.ImplementPcInRbac1-Workload_IO	gsis.indirect.ImplementPcInRbac0-Max_Number_of_Roles	gsis.indirect.ImplementPcInRbac0-Maximum_State_Size	gsis.indirect.ImplementPcInRbac0-Maximum_Workload_Size	gsis.indirect.ImplementPcInRbac0-Number_Of_Actors	gsis.indirect.ImplementPcInRbac0-Number_Of_Authors	gsis.indirect.ImplementPcInRbac0-Number_Of_Objects	gsis.indirect.ImplementPcInRbac0-Number_Of_Reviewers	gsis.indirect.ImplementPcInRbac0-Permissions_Per_Role(Replace Percentage)	gsis.indirect.ImplementPcInRbac0-Proportion_AC_State_Change	gsis.indirect.ImplementPcInRbac0-Proportion_Workload_State_Change	gsis.indirect.ImplementPcInRbac0-Scheme_IO	gsis.indirect.ImplementPcInRbac0-Stutter_Avg	gsis.indirect.ImplementPcInRbac0-Stutter_Prop	gsis.indirect.ImplementPcInRbac0-Total_Stutter_Cost	gsis.indirect.ImplementPcInRbac0-Workload_IO	gsis.indirect.ImplementPcInUgo-Max_Number_of_Roles	gsis.indirect.ImplementPcInUgo-Maximum_State_Size	gsis.indirect.ImplementPcInUgo-Maximum_Workload_Size	gsis.indirect.ImplementPcInUgo-Number_Of_Actors	gsis.indirect.ImplementPcInUgo-Number_Of_Authors	gsis.indirect.ImplementPcInUgo-Number_Of_Objects	gsis.indirect.ImplementPcInUgo-Number_Of_Reviewers	gsis.indirect.ImplementPcInUgo-Permissions_Per_Role(Replace Percentage)	gsis.indirect.ImplementPcInUgo-Proportion_AC_State_Change	gsis.indirect.ImplementPcInUgo-Proportion_Workload_State_Change	gsis.indirect.ImplementPcInUgo-Scheme_IO	gsis.indirect.ImplementPcInUgo-Stutter_Avg	gsis.indirect.ImplementPcInUgo-Stutter_Prop	gsis.indirect.ImplementPcInUgo-Total_Stutter_Cost	gsis.indirect.ImplementPcInUgo-Workload_IO	-Time-
0		987	7002	6311	125	93	1054	31	120.77001013171225	4.398280407854046E-4	3.5092855960786664E-4	8892814	1.3194767441860464	0.17819767441860465	1658	4521	3229	7751	6438	125	93	1067	31	37.53484050789718	4.751907077793738E-4	3.511848503137206E-4	8639541	1.5700746697300403	0.18380241240666284	1985	4626	5294	17055	6288	125	93	1031	31	19.474877219493766	4.857561419340491E-4	3.6312933351664406E-4	775565	3.4177553444180524	0.49643705463182897	8143	4506	117.544
4		787	5441	4865	97	72	779	24	113.72299872935197	5.754791318533487E-4	4.5329391405349285E-4	5482011	1.3362264150943397	0.18754716981132075	1340	3478	2482	5969	4987	97	72	826	24	37.792103142626914	6.117942133794759E-4	4.539545292891893E-4	5121839	1.564054957296695	0.18158187894541403	1519	3583	4081	13227	4923	97	72	813	24	19.921587846116147	6.072899253795368E-4	4.503182095511369E-4	496542	3.3417815877748787	0.48192322027581064	6283	3528	54.155
2		1310	9279	8271	165	123	1396	41	120.0	3.3468031699949416E-4	2.6634692486946176E-4	15408496	1.3215859030837005	0.17973568281938326	2207	5943	4177	9902	8116	165	123	1358	41	36.67704093847259	3.6967104926249157E-4	2.722681772954377E-4	14222624	1.5697255960413856	0.18353576248313092	2533	5835	6842	22155	8113	165	123	1379	41	20.1549254603917	3.630147334065115E-4	2.685223602728176E-4	1388828	3.34927374301676	0.4835754189944134	10513	5824	173.734
1		1513	10879	9762	193	144	1683	48	123.92597488433576	2.8132313042249566E-4	2.2587975928588607E-4	21025724	1.3082930457419115	0.17385645221271848	2532	7036	4843	11720	9706	193	144	1666	48	38.364650010324176	3.0880954073276483E-4	2.270697465849025E-4	19554729	1.5459135964092015	0.17579951374602582	2919	6993	8075	26236	9611	193	144	1646	48	20.38390092879257	3.079994475875154E-4	2.287477160416531E-4	1906449	3.3545334090478893	0.4857088775317055	12439	6907	235.997
6		999	7128	6442	129	96	1088	32	123.12312312312312	4.222173674421816E-4	3.372513045905893E-4	9149446	1.2979442410588566	0.1726274288932695	1663	4611	3352	7997	6618	129	96	1096	32	36.87350835322196	4.56476019168183E-4	3.308306497626863E-4	9441381	1.5688754467968105	0.18339290624140775	2069	4747	5443	17687	6554	129	96	1101	32	20.227815542899137	4.5889752414350106E-4	3.401805611688169E-4	861038	3.3609001406469763	0.4869198312236287	8393	4690	93.992
5		895	6457	5840	117	87	999	29	126.59217877094972	4.666161620476094E-4	3.797121067223939E-4	7546067	1.3035323538605814	0.17036573929352922	1480	4206	3049	7192	5931	117	87	964	29	36.01180714988521	5.146278254151242E-4	3.7643534255438904E-4	7636207	1.5861318407960199	0.1890547263681592	1885	4247	4842	15718	5820	117	87	976	29	20.156959933911608	5.11248133652959E-4	3.8049161119386825E-4	706961	3.339308176100629	0.48144654088050315	7439	4177	80.018
3		1918	13492	11944	237	177	2015	59	117.04900938477581	2.360724004446798E-4	1.8699556998486543E-4	32347687	1.341879029782008	0.18544673011974208	3259	8594	6031	14457	11930	237	177	2025	59	37.3901508870834	2.5284215925593545E-4	1.856526336565224E-4	29960719	1.56156202143951	0.18101071975497704	3667	8572	9958	32107	11654	237	177	1971	59	19.7931311508335	2.5105823396043774E-4	1.852105179059088E-4	2859968	3.3646332046332046	0.4861776061776062	15311	8378	356.327
8		2033	14359	12758	253	189	2159	63	118.39645843580915	2.193865872528963E-4	1.7389066727688393E-4	36721826	1.3331899024670109	0.18287435456110154	3443	9166	6517	15530	12773	253	189	2144	63	36.811416295841646	2.353527880096617E-4	1.708018843967925E-4	35319337	1.567068843151171	0.18282469836763662	3995	9171	10663	34420	12513	253	189	2118	63	19.86307793303948	2.3655179312668612E-4	1.7534606974267629E-4	3220508	3.3816228770503702	0.4900566119901292	16407	8997	382.663
7		1676	11935	10660	213	159	1820	53	121.53937947494033	2.591905728135218E-4	2.0787980631678413E-4	25398194	1.3198221310073541	0.1775269368907132	2809	7677	5485	13162	10892	213	159	1830	53	37.41112123974476	2.7734145612731914E-4	2.0250386133979106E-4	25029156	1.564210172905825	0.18197079066644284	3361	7811	9054	29280	10737	213	159	1804	53	19.924895074000442	2.7957965632128927E-4	2.074098914609679E-4	2295484	3.3886702036625023	0.49204175937018657	13957	7699	241.212
11		651	4520	4046	81	60	654	20	115.05376344086021	6.913109922791872E-4	5.46992270449012E-4	3781014	1.33606184629377	0.18599363346975897	1104	2893	2083	5055	4304	81	60	699	20	38.6461833893423	7.167847776563465E-4	5.337945724085941E-4	3683881	1.555845284658844	0.17905258583224684	1279	3088	3373	10951	4091	81	60	681	20	20.189742069374443	7.305082370311251E-4	5.381005052165855E-4	346946	3.330938482263134	0.4800179613830265	5191	2916	32.42
9		2017	14275	12681	253	189	2157	63	119.28606841844324	2.172647318272855E-4	1.7264423210653628E-4	36185553	1.3179223744292237	0.17965182648401826	3403	9130	6565	15437	12588	253	189	2091	63	35.62833206397563	2.3913821853484876E-4	1.7367840828874144E-4	35224342	1.583622183708839	0.18833044482957828	4041	9030	10618	34257	12429	253	189	2109	63	19.862497645507627	2.3583725521918037E-4	1.7420593289118913E-4	3245014	3.367261128026678	0.48687835290706105	16327	8938	342.046
10		2206	15763	14088	285	213	2446	71	122.80145058930191	1.912529461338301E-4	1.545240018352294E-4	44555280	1.3033679088231527	0.1731335638365988	3666	10151	7255	17487	14444	285	213	2469	71	37.82219159200552	2.074989138467684E-4	1.5127902571647323E-4	43996790	1.5529647737244578	0.17826250470101543	4411	10388	12138	39327	14322	285	213	2449	71	20.176305816444223	2.0625477106108844E-4	1.5301472984816328E-4	4171019	3.369719200607134	0.4889956994687579	18735	10316	468.857
15		1309	9354	8405	169	126	1442	42	123.07104660045836	3.232973661447927E-4	2.6080942271190734E-4	15746579	1.305417655946471	0.17332182171379235	2177	6047	4378	10400	8552	169	126	1415	42	36.6148926450434	3.5304262463220124E-4	2.5649477072122226E-4	15919782	1.573892674616695	0.1850511073253833	2695	6136	7122	23141	8485	169	126	1447	42	20.31732659365347	3.495320154681787E-4	2.602834209556951E-4	1474645	3.3563612958592577	0.48616176786097404	10983	6110	151.321
14		976	6870	6146	125	93	1027	31	119.56967213114754	4.4789720086460836E-4	3.589777485892419E-4	8558505	1.3207491082045184	0.1789536266349584	1631	4410	3130	7599	6356	125	93	1078	31	38.753993610223645	4.743898943436037E-4	3.516561969200913E-4	8197299	1.5436977213729448	0.17507931929622153	1885	4575	5266	17042	6319	125	93	1044	31	19.82529434105583	4.748500186951827E-4	3.5163862588985447E-4	808264	3.360326245266531	0.48558112438100787	8103	4523	82.123
19		777	5521	5076	97	72	819	24	120.97812097812098	5.584026511434959E-4	4.415367383353894E-4	5656186	1.3218475073313782	0.17851906158357772	1316	3616	2410	5882	4978	97	72	841	24	39.29460580912863	6.018451738255424E-4	4.397493010643803E-4	4997173	1.5281021897810219	0.16970802919708028	1447	3574	4010	12908	4772	97	72	782	24	19.50124688279302	6.224006310473502E-4	4.5834751803945043E-4	482454	3.352738414400613	0.48219073152049025	6143	3409	45.651
12		2017	14251	12664	249	186	2135	62	118.1457610312345	2.1840654532109797E-4	1.721940691523885E-4	36275243	1.3202689171792303	0.1818051780861107	3428	9096	6319	15075	12368	249	186	2103	62	37.015350530147174	2.4130910230279803E-4	1.765434785505225E-4	32963892	1.5611289850833576	0.1807546066101199	3837	8904	10578	34390	12549	249	186	2164	62	20.45755341274343	2.3539757822862916E-4	1.7503344599849546E-4	3200124	3.361416184971098	0.4880057803468208	16341	9045	359.434
13		1771	12555	11171	221	165	1891	55	119.59345002823264	2.481069671190956E-4	1.972464493799126E-4	28131494	1.3226436594497801	0.18053068533289923	2994	8040	5665	13574	11209	221	165	1890	55	37.31685789938217	2.689398427484058E-4	1.9705073149300337E-4	26570668	1.5644661776691116	0.18190709046454767	3463	8049	9513	30718	11231	221	165	1876	55	19.72038263428992	2.658948171651162E-4	1.9690847109908686E-4	2508314	3.3875426898682712	0.4917872824849569	14681	8067	268.343
17		833	5886	5301	105	78	874	26	119.9279711884754	5.218294284768902E-4	4.169268124242219E-4	6347787	1.3174767321613237	0.17890382626680454	1403	3807	2845	6766	5677	105	78	902	26	36.27416520210896	5.481889430817493E-4	4.035941856982687E-4	6770815	1.596427390009924	0.1925239827985445	1803	4059	4283	13831	5071	105	78	851	26	19.86925052533271	5.692509064486494E-4	4.17903692612191E-4	578010	3.3055555555555554	0.4729254571026723	6557	3638	54.381
16		1469	10414	9305	185	138	1570	46	120.1497617426821	2.9612329426967717E-4	2.3561471233652842E-4	19414151	1.3151219512195123	0.17853658536585365	2473	6687	4633	11099	9161	185	138	1555	46	37.59982732570688	3.2513513445155937E-4	2.3885718032250067E-4	17785910	1.551730959446093	0.17764589515331355	2789	6594	7877	25462	9321	185	138	1568	46	19.906055604925733	3.2015132112221017E-4	2.3759594483999225E-4	1748755	3.381372549019608	0.49058823529411766	12145	6697	187.222
21		1455	10319	9212	185	138	1567	46	120.54982817869416	3.03028390337859E-4	2.4254268316802537E-4	18999926	1.3311377245508982	0.17984031936127745	2439	6616	4588	11059	9156	185	138	1568	46	38.208369659982566	3.280989559100623E-4	2.4314915175755456E-4	17257078	1.5485611510791366	0.17645883293365308	2745	6587	7902	25519	9338	185	138	1561	46	19.754492533535814	3.1890616424067286E-4	2.3574243945347173E-4	1754411	3.3818928431755966	0.49041845913179505	12181	6698	172.945
23		1997	14281	12762	253	189	2199	63	122.08312468703055	2.146251774615662E-4	1.7165437907714143E-4	36162467	1.3089672758181046	0.17552061198470037	3352	9198	6427	15386	12659	253	189	2150	63	37.326902131632174	2.381206609396764E-4	1.756168307312982E-4	33807741	1.5640173410404625	0.18179190751445087	3903	9105	10663	34675	12642	253	189	2193	63	20.56644471537091	2.3238817477744088E-4	1.7212189029177687E-4	3310588	3.347981167070909	0.48523327150806106	16457	9100	341.752
20		1415	9983	8916	177	132	1495	44	118.58657243816255	3.130901237589885E-4	2.4946071260610603E-4	17999071	1.331413289446616	0.18206130425838304	2390	6404	4306	10334	8535	177	132	1465	44	38.10961449140734	3.4416852706984827E-4	2.5080080615711895E-4	15460242	1.5325927478516035	0.17124292601131838	2541	6140	7416	24070	8814	177	132	1504	44	20.28047464940669	3.3716993779276874E-4	2.509392606250252E-4	1594188	3.3645962732919257	0.48757763975155277	11421	6339	164.333
18		2279	16225	14486	293	219	2503	73	121.67617376042124	1.8643994750533176E-4	1.4990654852220915E-4	47110831	1.30474293539151	0.17440557699489606	3797	10426	7687	18235	14905	293	219	2499	73	36.15194484194094	2.0321604148536203E-4	1.4801140964577038E-4	48595439	1.5826607972609439	0.1880655416972365	4765	10712	12299	39876	14493	293	219	2498	73	20.31059435726482	2.0167407679178213E-4	1.4925820303391573E-4	4406294	3.3509490137700038	0.48480337427118225	18951	10437	479.504
24		880	6167	5527	105	78	884	26	115.56818181818181	5.210980877517393E-4	4.0791471956300705E-4	7007362	1.350453172205438	0.1899966431688486	1522	3961	2749	6447	5348	105	78	849	26	35.61295016369589	5.681385727031339E-4	4.0880396970734714E-4	6323444	1.5841041452552245	0.1884206920178143	1705	3814	4383	14199	5235	105	78	877	26	20.00912616929044	5.620892859129457E-4	4.1527394370495117E-4	579572	3.334025614399446	0.4800969193492558	6743	3756	58.835
28		1097	7764	6951	137	102	1160	34	119.5077484047402	4.027900244661226E-4	3.20593243136517E-4	10870145	1.3286731733051964	0.18121867581113163	1856	4997	3424	8177	6759	137	102	1136	34	37.441588785046726	4.440478568903779E-4	3.267348997038986E-4	9634130	1.5564864864864865	0.1791891891891892	2059	4853	5815	18859	6955	137	102	1167	34	20.06878761822872	4.315699226971868E-4	3.211052501865773E-4	969134	3.3702431289640593	0.48863636363636365	8969	4994	98.93
27		2008	14182	12577	245	183	2109	61	117.62948207171314	2.2719561343831498E-4	1.788892265576436E-4	35610421	1.3473607038123168	0.18680351906158357	3432	9038	6055	14632	12101	245	183	2092	61	38.39801816680429	2.449149155922708E-4	1.797610137654858E-4	30511768	1.5382322253689074	0.17320017886421224	3611	8715	10523	33937	12381	245	183	2069	61	19.66169343343153	2.406638721381117E-4	1.7840367946867048E-4	3060472	3.3918938835666914	0.49240972733972	16229	8902	323.588
25		1987	14103	12565	253	189	2155	63	120.5837946653246	2.1798954528606988E-4	1.741173784674765E-4	35305295	1.3137254901960784	0.1771914648212226	3327	9036	6421	15394	12694	253	189	2158	63	37.43965114468151	2.3551000571047514E-4	1.7173952105136288E-4	34297237	1.5558408215661104	0.17914705462844102	3897	9123	10767	34675	12661	253	189	2107	63	19.569053589672148	2.340079973846023E-4	1.7255492951100736E-4	3264589	3.379127189204709	0.4890898650588573	16573	9084	343.024
31		663	4760	4305	85	63	726	21	124.43438914027149	6.499154192871538E-4	5.22785038118406E-4	4058508	1.3186484174508126	0.17493584260051326	1108	3097	2122	5088	4276	85	63	703	21	37.93590951932139	7.072914231291306E-4	5.214718859042675E-4	3761721	1.5504310344827585	0.1771551724137931	1277	3062	3522	11452	4303	85	63	712	21	20.21578648495173	6.878209986089381E-4	5.042608148078728E-4	390981	3.294491525423729	0.4724576271186441	5415	3067	34.877
35		807	5749	5206	101	75	861	25	121.43742255266419	5.315889180050419E-4	4.230575909250746E-4	6071721	1.3122585177379698	0.17737969792764313	1364	3732	2566	6136	5093	101	75	841	25	37.49025720966485	5.917102168828272E-4	4.294905383234407E-4	5533377	1.5576991782779563	0.17970703822793854	1561	3650	4272	13854	5189	101	75	850	25	19.89700374531835	5.724673058055957E-4	4.195493919367844E-4	552947	3.316326530612245	0.4767769176636172	6583	3701	51.231
29		1048	7443	6683	129	96	1110	32	119.65648854961832	4.262382026653491E-4	3.367550786282726E-4	9945634	1.3368362831858407	0.18307522123893805	1785	4795	3334	8013	6666	129	96	1108	32	37.58248350329934	4.553716926285227E-4	3.326409977421723E-4	9331698	1.5632215503023639	0.1816932380428807	2049	4783	5356	17341	6377	129	96	1071	32	19.996265870052277	4.722449945410945E-4	3.5291619943943523E-4	829741	3.3832560834298957	0.4901506373117034	8227	4578	81.732
22		2013	14083	12433	245	183	2073	61	115.15151515151516	2.2793124296116734E-4	1.7930441892628218E-4	35469058	1.3486482493721377	0.18894962328261192	3444	8930	6262	15057	12437	245	183	2110	61	37.62376237623762	2.422058533289815E-4	1.777360104224635E-4	32542865	1.5599706744868036	0.1804985337243402	3819	8945	10333	33435	12187	245	183	2073	61	20.061937481854255	2.4322905111249358E-4	1.7994692820105226E-4	3044085	3.373247837757232	0.48896510587533554	15915	8750	351.765
26		1189	8421	7497	153	114	1285	38	120.6896551724138	3.636652469088881E-4	2.92616441836088E-4	12674937	1.3144030932817787	0.17665538907684872	1982	5400	3931	9511	7955	153	114	1329	38	38.20910709743068	3.821258487664396E-4	2.791675521165785E-4	13049211	1.5549919299054646	0.1789255245561448	2407	5704	6461	20951	7681	153	114	1301	38	20.13620182634267	3.875135930358916E-4	2.886787786422823E-4	1200604	3.3689343482397716	0.48834443387250237	9959	5528	124.794
32		2308	16187	14273	277	207	2378	69	115.07798960138648	1.9618857813841396E-4	1.5352407703691858E-4	47041826	1.3363879343260787	0.18811251113656613	3973	10261	7099	17194	14240	277	207	2438	69	38.13213128609663	2.121476275949592E-4	1.5605217796609924E-4	41995206	1.5562395793253816	0.17929973066564064	4337	10251	11608	37422	13593	277	207	2298	69	19.79669193659545	2.1759682083242487E-4	1.613610824642309E-4	3829692	3.3823961533324427	0.48978228930145584	17837	9773	467.506
30		1362	9893	8925	173	129	1538	43	126.431718061674	3.1029370616398016E-4	2.4911333967662973E-4	17373834	1.3082583810302535	0.17252657399836469	2285	6433	4297	10362	8596	173	129	1470	43	38.212706539446124	3.478764462626049E-4	2.559795739643726E-4	15320004	1.5440896595474731	0.1750898710086699	2573	6183	7319	23725	8706	173	129	1469	43	20.071047957371224	3.4257928103047697E-4	2.540716011020559E-4	1534059	3.3699579831932773	0.4884453781512605	11281	6248	156.372
39		2118	14842	13103	261	195	2199	65	116.14730878186968	2.147713607196048E-4	1.6963893013108265E-4	39207015	1.342605535364831	0.18674867207156837	3602	9416	6622	15867	13086	261	195	2224	65	37.390516460283905	2.2972195569001316E-4	1.690949203817654E-4	36103892	1.560295552767322	0.18053812909521819	4019	9413	11035	35815	13022	261	195	2247	65	20.362483008608972	2.244910459193463E-4	1.6617750884617268E-4	3536010	3.3479520066197765	0.4847607226589436	17025	9386	395.372
34		913	6443	5782	117	87	971	29	119.934282584885	4.853164971221446E-4	3.881100036056188E-4	7414533	1.331523474928138	0.1798147556691153	1525	4142	2944	7170	6019	117	87	1013	29	39.0625	5.012969381826278E-4	3.6994855749966036E-4	7347912	1.5416666666666667	0.17427007299270073	1781	4330	4906	16000	5933	117	87	1008	29	20.546269873624134	5.006444277130123E-4	3.727715684160435E-4	722556	3.331074838312288	0.4813674160763782	7569	4263	70.421
43		668	4584	4076	81	60	645	20	111.22754491017965	7.153825764363145E-4	5.619105884328452E-4	3855779	1.3736213235294117	0.1957720588235294	1147	2918	2008	4924	4180	81	60	707	20	39.7410358565737	7.249621331476648E-4	5.403760909517806E-4	3405229	1.532772364924712	0.17139061116031887	1203	3000	3470	11383	4270	81	60	725	20	20.89337175792507	6.98642000531765E-4	5.180947900550134E-4	366135	3.3035102739726026	0.4777397260273973	5381	3066	34.047
33		2439	17182	15178	297	222	2558	74	116.68716687166872	1.8297336676324167E-4	1.4404590074529146E-4	52774112	1.3285594939730279	0.1848669292278315	4170	10921	7549	17938	14673	297	222	2494	74	36.64061465094714	2.0371589075030965E-4	1.489107030410768E-4	46706545	1.5663334567444156	0.18240157966185364	4589	10555	12483	40425	14691	297	222	2521	74	20.195465833533607	2.0067493693886755E-4	1.491390769238053E-4	4461596	3.3693615972393394	0.4884150850382056	19225	10584	499.799
38		1237	8800	7878	157	117	1338	39	121.26111560226354	3.4990456310905277E-4	2.804246254852728E-4	13884920	1.3166165934827825	0.17725907094984977	2075	5671	3976	9464	7804	157	117	1303	39	37.02213279678068	3.864852352693151E-4	2.84847470272663E-4	12970690	1.5660333098756745	0.18226600985221675	2413	5610	6696	21955	8107	157	117	1411	39	21.072281959378735	3.6640597289828877E-4	2.7235395777887875E-4	1317339	3.3317610062893084	0.4838274932614555	10381	5832	128.696
36		2251	15954	14196	281	210	2414	70	119.32474455797423	1.9400529949396562E-4	1.5399460282138723E-4	45293097	1.3160978094752929	0.1794447274579725	3806	10221	7303	17370	14241	281	210	2396	70	36.47815966041353	2.122398878216407E-4	1.5493937870050768E-4	43922663	1.5759436980166346	0.18579654510556623	4501	10237	11865	38430	13967	281	210	2398	70	20.210703750526758	2.096498811539659E-4	1.549929845442938E-4	4062979	3.355919103439392	0.4858946283653227	18289	10055	461.4
47		2002	14177	12613	257	192	2166	64	120.47952047952047	2.1304309554292004E-4	1.7129738912014444E-4	36151264	1.3040011391143387	0.1754236081446675	3339	9087	6568	15515	12681	257	192	2126	64	36.17539585870889	2.3701733192602612E-4	1.719922725936891E-4	35236493	1.57378223495702	0.1849570200573066	4005	9087	11046	35491	12938	257	192	2131	64	19.29205142132899	2.3183024224491253E-4	1.717590842406526E-4	3307581	3.414561453306841	0.4958841896111269	17013	9284	358.578
37		1953	13669	12057	241	180	2025	60	115.87301587301587	2.3113932779912465E-4	1.82553144236877E-4	33330472	1.3348921405943581	0.18569920048272742	3320	8672	6193	14739	12118	241	180	2041	60	36.67043436137575	2.477950950038314E-4	1.804167656311991E-4	31726604	1.5676404494382024	0.18307116104868915	3789	8702	10425	33676	12340	241	180	2056	60	19.72182254196643	2.4286275500853184E-4	1.799511295532199E-4	2991273	3.389878302166815	0.4924309884238646	16103	8863	314.771
42		2234	15715	13903	277	207	2356	69	117.0993733213966	1.9994698998619396E-4	1.5841584785868083E-4	44031842	1.3317188113627438	0.18379369027359602	3788	9999	6934	16667	13721	277	207	2360	69	37.784828381886356	2.1652602201395856E-4	1.5829401513386284E-4	39911547	1.5476878612716762	0.17643194955333683	4169	9879	11789	38246	13934	277	207	2390	69	20.27313597421325	2.1394255803808734E-4	1.5950629726539886E-4	3888511	3.3842022530783336	0.49227141734346347	18201	10039	422.962
51		1523	10723	9536	193	144	1613	48	118.64740643466841	2.8853374532339084E-4	2.3043766143496296E-4	20611796	1.3222730739893211	0.18020594965675057	2556	6854	4909	11662	9568	193	144	1606	48	36.74882868201263	3.1541799891478934E-4	2.3226459739738613E-4	19606473	1.5720030639601685	0.18422060513213329	2987	6873	8276	26711	9785	193	144	1631	48	19.707588206863218	3.0525434749394885E-4	2.265744881507083E-4	1911609	3.385161652027658	0.4911231545505513	12763	7034	195.314
41		1691	12141	10884	217	162	1881	54	123.83205204021289	2.4942986805635435E-4	2.0096379119652065E-4	26327023	1.3026730865017433	0.1728374564170679	2820	7846	5458	13182	10921	217	162	1867	54	38.18248442652987	2.747048729521687E-4	2.0152130892937123E-4	24821169	1.5478289802029612	0.17650973215771087	3293	7858	9177	29610	10789	217	162	1816	54	19.78860193963169	2.7487058760424394E-4	2.0359829858734345E-4	2382865	3.3822289664474794	0.48996796493002864	14129	7753	242.919
40		1997	14080	12498	249	186	2116	62	118.02704056084126	2.2232461107100942E-4	1.766033409964288E-4	35410334	1.329298527052647	0.18244130086043459	3377	8987	6436	15339	12611	249	186	2118	62	36.76196395276569	2.3933100646268275E-4	1.7558961434801384E-4	34097544	1.5729815915350052	0.1848093926656037	3953	9063	10421	33808	12307	249	186	2120	62	20.343537088571154	2.3741055910345393E-4	1.7571560731367185E-4	3188329	3.3460020464844322	0.48384739073234906	16049	8861	351.049
55		1429	10224	9187	181	135	1564	45	122.5332400279916	2.9878331369896015E-4	2.3913076131134285E-4	18817856	1.310051444400475	0.17550455085081124	2400	6607	4633	11081	9125	181	135	1535	45	37.23289445283833	3.3129744767322015E-4	2.441305460200584E-4	17650897	1.5678442392613408	0.18305901244480127	2829	6564	7706	25165	9281	181	135	1595	45	20.698157280041524	3.2311321276616594E-4	2.413510165105051E-4	1705064	3.3590504451038576	0.4882294757665678	11925	6680	170.485
44		949	6601	5858	117	87	957	29	114.96311907270811	4.7860713980914124E-4	3.775512550076732E-4	7893748	1.3367665418227217	0.1869538077403246	1615	4204	3019	7213	5966	117	87	987	29	37.16462404769791	5.079779403862582E-4	3.7496343100462904E-4	7541617	1.5723542116630669	0.18451095340944154	1855	4286	4970	16102	5944	117	87	992	29	19.959758551307846	5.01836320804729E-4	3.72112680431026E-4	717115	3.357846153846154	0.48584615384615387	7663	4265	73.999
46		1819	12946	11560	233	174	1986	58	121.60527762506872	2.350245765506557E-4	1.8879970536264223E-4	29985091	1.3081013450109478	0.17532061307475758	3036	8321	5941	14199	11675	233	174	1975	58	37.16546036020872	2.579918430725737E-4	1.9003838766383515E-4	28976911	1.566087908650086	0.18238698576568121	3619	8402	9813	31601	11495	233	174	1927	58	19.637215938041372	2.5537992455942476E-4	1.8833419069710287E-4	2764966	3.367817896389325	0.48649921507064364	15083	8258	292.319
50		1013	7308	6641	129	96	1122	32	125.17275419545904	4.18886152836754E-4	3.363991652844523E-4	9661841	1.3122059230556324	0.173539994464434	1698	4771	3241	7713	6350	129	96	1059	32	37.17988275223696	4.727910995749265E-4	3.473944880582003E-4	8637768	1.5618719494688487	0.18087855297157623	1957	4564	5329	17293	6368	129	96	1077	32	20.210170763745545	4.6741835694265354E-4	3.481930993365072E-4	846576	3.35316091954023	0.48419540229885055	8189	4574	105.458
59		1822	12665	11146	217	162	1828	54	112.78814489571899	2.558857643212195E-4	1.9944151884482874E-4	28906862	1.3556471558120362	0.193239901071723	3148	7995	5569	13476	11168	217	162	1898	54	38.12174537618962	2.7123229312909646E-4	1.9936978993477658E-4	25848426	1.5581052286510408	0.1799704966398951	3405	8033	9128	29583	10781	217	162	1847	54	20.23444347063979	2.723093031405614E-4	2.01580764237421E-4	2425777	3.353128136500502	0.4851120776179324	14067	7758	276.004
45		2180	15115	13298	269	201	2218	67	113.57798165137615	2.075211103703779E-4	1.6327963093704662E-4	41007818	1.3313834852401034	0.1869133451231125	3705	9543	6868	16372	13430	269	201	2269	67	36.93942923704135	2.2282560365897956E-4	1.623582433967981E-4	39023814	1.5637466307277628	0.18180592991913747	4183	9656	11482	36995	13456	269	201	2253	67	19.62201707019683	2.230206845733042E-4	1.6605906770464682E-4	3591591	3.4142779142779145	0.49658749658749657	17687	9676	410.166
48		1885	13382	11926	237	177	2030	59	120.15915119363395	2.3357054184778653E-4	1.8605325781553264E-4	31760530	1.3256775378961874	0.1799111927729291	3176	8579	5992	14331	11797	237	177	2006	59	37.28304405874499	2.5301873923536924E-4	1.8526810073711157E-4	29697865	1.557757296466974	0.17956989247311828	3631	8485	10170	32838	12009	237	177	2008	59	19.744346116027533	2.469725989744638E-4	1.8266656160078102E-4	2912347	3.371674727932285	0.4883615477629988	15691	8635	348.978
63		1319	9412	8459	165	123	1428	41	121.30401819560272	3.285745916224819E-4	2.59859788864243E-4	15833763	1.3152900582273022	0.1779167565236144	2230	6063	4066	9771	8072	165	123	1380	41	38.07181505164781	3.674579964816938E-4	2.6887474045250346E-4	13726712	1.5411265087170318	0.17411712114438982	2421	5805	6956	22599	8314	165	123	1415	41	20.3421506612996	3.620972539315683E-4	2.6890228613009776E-4	1377493	3.381047492232579	0.49134487350199735	10729	5954	136.49
54		1713	12191	10855	213	159	1847	53	120.19848219497956	2.5254483620679445E-4	2.0060856569315816E-4	26630083	1.3127079174983367	0.17880904856952762	2901	7816	5389	12872	10588	213	159	1790	53	37.24253108183336	2.8324976652345686E-4	2.0770412278902292E-4	23904051	1.5610929713009107	0.18078707681732256	3265	7611	9030	29351	10764	213	159	1843	53	20.409745293466223	2.7733554903936993E-4	2.0589536770315673E-4	2326504	3.3680992016307116	0.48921352131815865	13941	7730	247.237
67		891	6322	5700	109	81	930	27	119.6408529741863	5.010791342974085E-4	3.9501004503869126E-4	7246104	1.335716607084823	0.18362040948976274	1522	4083	2641	6395	5354	109	81	911	27	39.00037864445286	5.552224459729098E-4	4.130204979908385E-4	5810614	1.5301327885597549	0.17024174327545114	1557	3854	4607	14956	5558	109	81	926	27	20.0998480573041	5.386145303915099E-4	4.001913932652817E-4	625401	3.3473231989424983	0.4838070059484468	7103	3987	58.541
49		1489	10762	9711	193	144	1686	48	125.92343854936199	2.7956035174271605E-4	2.2562981622940704E-4	20658772	1.29798356982823	0.17008961911874534	2471	6987	4771	11511	9552	193	144	1635	48	38.33577866275414	3.1332522035931135E-4	2.3084980001929803E-4	18801468	1.5431133155284242	0.17474246470812668	2847	6864	8205	26585	9739	193	144	1645	48	20.048750761730652	3.0385104238832457E-4	2.2541752420536464E-4	1935212	3.3591798695246973	0.4863000931966449	12657	7008	191.22
71		721	5248	4820	93	69	816	23	128.01664355062414	5.700380355003736E-4	4.6040454407711705E-4	5030965	1.2961977186311786	0.16844106463878328	1201	3461	2374	5741	4813	93	69	794	23	38.4161752316765	6.297200034295698E-4	4.60235677411135E-4	4806679	1.5512917933130699	0.17743161094224924	1451	3457	3894	12618	4716	93	69	772	23	19.82537236774525	6.326621519551197E-4	4.680961364395585E-4	459753	3.328538102643857	0.4786158631415241	5989	3377	43.294
58		871	6284	5704	113	84	972	28	126.06199770378875	4.7389544370786315E-4	3.825849639162364E-4	7175023	1.2919313850063532	0.1693138500635324	1447	4099	2884	6822	5637	113	84	923	28	36.511789181692095	5.344739470890696E-4	3.8631662311436256E-4	6937692	1.566688144329897	0.18266752577319587	1759	4038	4854	15763	5873	113	84	973	28	20.04532344458179	5.184252420158031E-4	3.853946077757304E-4	667973	3.375870804306523	0.4901836605446485	7503	4204	66.226
52		1594	11262	10017	197	147	1679	49	118.44416562107905	2.757177273346445E-4	2.1797471414646515E-4	22799409	1.318995120187963	0.18145671425989518	2709	7204	5074	12189	10084	197	147	1698	49	37.4852187623177	2.9876678443445766E-4	2.1766659190853956E-4	21582094	1.5603821196827685	0.1807858687815429	3109	7247	8331	27044	9911	197	147	1690	49	20.285679990397313	2.9827902485697014E-4	2.2071378235916347E-4	2013245	3.3528011717319663	0.48553643354082754	12851	7121	219.648
62		1812	12765	11321	229	171	1928	57	118.43267108167771	2.4070916990195408E-4	1.923753195044642E-4	29312400	1.3173261008296107	0.17964262922782387	3046	8151	5668	13682	11301	229	171	1953	57	38.28510938602682	2.6139029932375737E-4	1.905181428615441E-4	26924887	1.5372779187817258	0.172747461928934	3387	8138	9765	31631	11560	229	171	1957	57	20.040962621607783	2.553070503564737E-4	1.8875694851865424E-4	2727724	3.3590104900579303	0.4864568655080633	15067	8312	284.836
53		1997	14209	12673	253	189	2173	63	120.93139709564346	2.1730644113867792E-4	1.739219100919437E-4	35971439	1.3185993111366245	0.17781285878300804	3351	9122	6379	15466	12823	253	189	2206	63	38.42295030569055	2.3338073637004146E-4	1.7116250802144667E-4	34091885	1.5455959281775766	0.175597342004807	3859	9233	10793	34931	12746	253	189	2165	63	20.059297692949134	2.3355045397170803E-4	1.7337055505354745E-4	3263686	3.3816673816673815	0.49120549120549123	16655	9168	343.766
75		2268	15800	13890	277	207	2319	69	114.28571428571429	1.9961219153614973E-4	1.5728235990447074E-4	45061491	1.3365547864698968	0.18780201123155282	3874	9986	6988	16828	13875	277	207	2379	69	37.864911276473954	2.149668416655659E-4	1.5753868468310753E-4	40661833	1.5507491856677524	0.17732899022801302	4227	9996	12119	39206	14357	277	207	2408	69	19.869626206782737	2.0988310055226775E-4	1.5581038659608497E-4	3955276	3.401766286957635	0.49584026622296173	18765	10319	431.443
79		650	4686	4288	85	63	721	21	126.61538461538461	6.431399068380308E-4	5.213326931358822E-4	4012061	1.3049828178694158	0.17010309278350516	1076	3076	2140	5058	4210	85	63	679	21	36.77570093457944	7.229921537635278E-4	5.339649612547218E-4	3745082	1.5709876543209877	0.18386243386243387	1295	3010	3611	11708	4385	85	63	716	21	19.8283024093049	6.961217686956671E-4	5.211860385737289E-4	378257	3.368936170212766	0.4876595744680851	5567	3147	34.697
66		1460	10264	9112	185	138	1539	46	118.35616438356165	3.021630103753364E-4	2.4114302974562613E-4	18889259	1.32421641046117	0.18087442603314036	2451	6548	4717	11405	9472	185	138	1605	46	38.159847360610556	3.2014647336268764E-4	2.3590475987909205E-4	18505152	1.556459422816192	0.17935308928917296	2873	6810	7907	25558	9372	185	138	1568	46	19.830529910206145	3.175690070261938E-4	2.3491191745395547E-4	1773171	3.370651117589893	0.48824101068999026	12197	6731	183.786
56		2168	15182	13394	261	195	2229	65	114.85239852398524	2.1095814682516771E-4	1.6499252139667438E-4	41147141	1.3428337651711442	0.18900859129960454	3727	9620	6667	15939	13112	261	195	2223	65	37.123143842807856	2.285392046446525E-4	1.6705978568373105E-4	36814692	1.5624740556247405	0.181264701812647	4065	9430	10980	35511	12888	261	195	2203	65	20.06375227686703	2.2552131967015163E-4	1.6626993201562473E-4	3533885	3.3429878048780486	0.4825388026607539	16907	9282	390.355
70		942	6565	5877	117	87	952	29	116.02972399150742	4.7622308494245683E-4	3.767666028065037E-4	7933092	1.3332291341044076	0.18505783057205377	1598	4207	3079	7404	6200	117	87	1014	29	37.47970120168886	4.980462813739186E-4	3.69625532248265E-4	7849833	1.5799515445184737	0.18715929739551787	1915	4435	4952	16007	5908	117	87	977	29	19.72940226171244	5.11171900916543E-4	3.8160399018943256E-4	699059	3.3836772983114445	0.4903064415259537	7623	4244	70.36
83		1451	10305	9222	185	138	1565	46	121.157822191592	2.9980177761203806E-4	2.4019861926008175E-4	18968081	1.3193427044149673	0.17758859631756088	2428	6630	4717	11227	9236	185	138	1549	46	36.86665253338987	3.281586077433539E-4	2.4187577764666753E-4	18132482	1.5714001591089897	0.18416865552903738	2873	6634	7845	25475	9356	185	138	1591	46	20.280433397068197	3.1630139776347223E-4	2.3405991871224411E-4	1789556	3.3485259891388672	0.48467804499612105	12109	6720	176.175
74		1285	8990	7979	153	114	1302	38	114.47470817120623	3.6363118739170323E-4	2.835407401538755E-4	14508021	1.3604840586455667	0.19245985571328833	2221	5719	3937	9388	7747	153	114	1292	38	36.931673863347726	3.9036800715347073E-4	2.8649557438782116E-4	12787150	1.5709891150023663	0.18409843823946995	2413	5561	6584	21327	7861	153	114	1313	38	19.94228432563791	3.844505143925367E-4	2.860732893004839E-4	1206253	3.3891498356035696	0.49271958666040394	10173	5644	123.91
57		2063	14699	13118	265	198	2267	66	121.86136694134755	2.059037946315386E-4	1.6515722669061748E-4	38371404	1.3010413812003288	0.17388325568648946	3439	9448	6562	15762	12969	265	198	2241	66	37.839073453215484	2.2790518367885252E-4	1.6670290927249445E-4	35728597	1.5420703016883477	0.17450871851646832	3917	9348	11233	36467	13272	265	198	2289	66	20.37745927178848	2.221109181027224E-4	1.6491566320559845E-4	3618730	3.3599618943930323	0.4873434948285248	17341	9566	369.705
87		1099	7699	6875	133	99	1115	33	115.92356687898089	4.159371990568164E-4	3.247781939632548E-4	10757182	1.346537321476691	0.18889787119374832	1886	4908	3238	7878	6580	133	99	1129	33	39.31439159975293	4.5459672292516866E-4	3.3858555954054256E-4	8670666	1.5327206906154274	0.17126148705096073	1913	4732	5778	18727	6943	133	99	1147	33	19.85115957078574	4.338645068787355E-4	3.221183661004388E-4	940574	3.36794701986755	0.488476821192053	8939	4988	91.107
60		1736	12386	11062	221	165	1893	55	122.11981566820276	2.4714141956511495E-4	1.980305405443424E-4	27340629	1.3093913612565444	0.17571989528795812	2907	7968	5479	13428	11203	221	165	1950	55	39.532761452819855	2.6572310259405043E-4	1.9587226081207965E-4	25312282	1.529678149765486	0.17046741064208312	3275	8073	9375	30425	11129	221	165	1903	55	20.298666666666666	2.640578126235435E-4	1.9527702709161497E-4	2551672	3.3469586374695863	0.4845093268450933	14469	8008	277.582
64		753	5242	4692	97	72	768	24	117.66268260292165	5.893185921850911E-4	4.727395758038402E-4	5054944	1.3296746373970991	0.18149745197961584	1256	3359	2458	5930	4963	97	72	823	24	38.24247355573637	6.060320515840698E-4	4.4171766345508877E-4	5134683	1.548292324641939	0.17664340800587588	1493	3558	4000	12941	4755	97	72	795	24	19.875	6.21015072265977E-4	4.621077711574177E-4	483135	3.347742922723795	0.4820198928844682	6137	3418	47.901
61		1361	9609	8548	169	126	1429	42	118.6627479794269	3.236614121317039E-4	2.565326823931302E-4	16615497	1.321648608455492	0.18164435946462715	2307	6146	4243	10215	8465	169	126	1439	42	37.96841857176526	3.5505971489641205E-4	2.6247727551516873E-4	14885830	1.5522227017695296	0.17781614156236514	2559	6094	7284	23676	8752	169	126	1474	42	20.236133992311917	3.4010697039345685E-4	2.5124387920549493E-4	1524078	3.3472193293063945	0.4851072693188919	11269	6281	148.119
68		679	4791	4332	85	63	705	21	119.44035346097202	6.568446479058607E-4	5.23270995954078E-4	4203143	1.3369052721817403	0.1821688812687527	1149	3108	2152	5174	4350	85	63	711	21	38.05762081784387	6.920294217534996E-4	5.058929561616692E-4	3955287	1.548238255033557	0.17659395973154363	1307	3122	3563	11569	4307	85	63	713	21	20.011226494527083	7.024306535660373E-4	5.266879634266789E-4	374878	3.3611708996986653	0.4860094705122686	5485	3094	37.388
72		1639	11613	10339	201	150	1733	50	118.73093349603417	2.72994906605797E-4	2.1511152061198707E-4	23997652	1.3336877547403863	0.18376749955697325	2795	7428	4984	12051	9982	201	150	1718	50	38.4430176565008	2.9723620438049537E-4	2.1640750825925204E-4	20893435	1.5359841669665346	0.172544080604534	2979	7185	8590	27923	10271	201	150	1743	50	20.29103608847497	2.902871271935425E-4	2.157658525094042E-4	2109187	3.358805757952728	0.48729340678869737	13273	7386	280.309
91		2031	14425	12848	261	195	2217	65	121.12259970457903	2.0863532449897723E-4	1.6744533634604632E-4	37166121	1.2984804126585807	0.17412519169106372	3384	9252	6781	16383	13569	261	195	2305	65	37.767290960035396	2.2284803627188113E-4	1.6227293372478253E-4	38678645	1.5601448303607348	0.18076974654686873	4177	9754	11113	36064	13136	261	195	2256	65	20.300548906685865	2.250651985268252E-4	1.6716551989765974E-4	3505970	3.367636915436612	0.48889502000275903	17163	9465	434.823
78		2224	15769	14018	281	210	2404	70	119.87410071942446	1.962590640231721E-4	1.5732151329867617E-4	44542744	1.3233004670472237	0.17929423975090814	3738	10099	7111	17194	14226	281	210	2444	70	38.13809590774856	2.1145241397276942E-4	1.5585976334057548E-4	41908531	1.5523650813998204	0.17792590693500834	4309	10243	11893	38508	14050	281	210	2394	70	20.12948793407887	2.1063285768362363E-4	1.557293888265668E-4	4034637	3.3673811983471076	0.4881198347107438	18333	10093	515.464
65		1928	13401	11790	237	177	1960	59	114.2116182572614	2.365889381044631E-4	1.8672881116688097E-4	32327404	1.3410601143563592	0.18822438572090866	3284	8473	5977	14387	11852	237	177	2031	59	37.845072778986115	2.519893675526415E-4	1.854949348346387E-4	29558244	1.553292496171516	0.1782542113323124	3613	8538	9960	32177	11715	237	177	1987	59	19.949799196787147	2.5200887831776755E-4	1.8675547631503156E-4	2841291	3.3722910216718267	0.48823529411764705	15325	8424	371.43
95		810	5762	5204	101	75	859	25	120.98765432098766	5.269680872717256E-4	4.1500174441222226E-4	6044329	1.3006263048016702	0.1767571329157968	1372	3722	2578	6226	5228	101	75	859	25	38.32428238944919	5.814576186713179E-4	4.2477516455501855E-4	5646864	1.5532139093782928	0.1780821917808219	1575	3746	4260	13761	5108	101	75	835	25	19.600938967136152	5.885724290045848E-4	4.365210868444263E-4	529789	3.363275613275613	0.4855699855699856	6551	3658	73.862
82		1403	9882	8804	185	138	1516	46	120.52744119743407	3.018905450352166E-4	2.4492841594915077E-4	17588674	1.2996124821537833	0.17315929023047114	2308	6335	4711	11434	9485	185	138	1618	46	38.48439821693908	3.1586557827907846E-4	2.3144839156581868E-4	18723945	1.5487758224942616	0.17674062739097168	2869	6831	7977	25737	9479	185	138	1561	46	19.56876018553341	3.1678175470870723E-4	2.34527885020635E-4	1768594	3.3855398333010274	0.49098662531498355	12307	6800	206.066
99		1421	10020	8937	181	135	1512	45	119.28219563687544	3.117650282926993E-4	2.489141716585477E-4	17941160	1.3312088815789473	0.1807154605263158	2380	6407	4696	11285	9343	181	135	1564	45	37.47870528109029	3.2380982231398046E-4	2.364332631267582E-4	18471847	1.565089913995309	0.18236903831118062	2891	6711	7682	24881	9170	181	135	1535	45	19.98177557927623	3.2782107210233707E-4	2.4298857753968925E-4	1673109	3.378112449799197	0.4899598393574297	11843	6570	189.651
86		800	5705	5141	101	75	856	25	122.25	5.421515339710281E-4	4.3168823468665895E-4	5879180	1.3178737067427757	0.1776667855868712	1347	3687	2440	5879	4909	101	75	834	25	38.60655737704918	6.02143412041525E-4	4.379297193153155E-4	5000122	1.526798825256975	0.16923641703377387	1435	3517	4252	13745	5122	101	75	837	25	19.684854186265287	5.871830197372349E-4	4.35623348746419E-4	532787	3.353851691864651	0.4838012958963283	6539	3668	51.605
69		1666	11726	10411	205	153	1741	51	117.22689075630252	2.678514914518937E-4	2.1120497465384965E-4	24656891	1.329136061559986	0.18398041273172439	2837	7478	5170	12267	10025	205	153	1700	51	36.67311411992263	2.9797765515972416E-4	2.1978599758792864E-4	21690075	1.5677196804647786	0.1828249818445897	3127	7215	8964	28978	10660	205	153	1768	51	19.723337795626954	2.8153767185188885E-4	2.0824109012210717E-4	2207035	3.3833333333333333	0.4915807560137457	13871	7653	245.857
90		1171	8321	7449	141	105	1231	35	118.78736122971819	3.8658927410860355E-4	3.0267320933171407E-4	12330193	1.3423535253227408	0.18594836146971203	2014	5344	3622	8784	7388	141	105	1233	35	38.37658752070679	4.1251799214051254E-4	3.036863026163942E-4	11025160	1.5556390977443608	0.17919799498746866	2217	5288	6082	19656	7283	141	105	1194	35	19.63170009865176	4.0919271106408886E-4	3.0091626781166854E-4	1061083	3.3531328320802003	0.48446115288220554	9389	5213	111.612
73		1318	9389	8405	169	126	1436	42	122.07890743550834	3.289739095986622E-4	2.6540039154559667E-4	15800432	1.322369854062296	0.17686778479634066	2200	6053	4342	10461	8656	169	126	1462	42	37.770612620912026	3.4711445482847483E-4	2.536000706122913E-4	15851810	1.5576761744966443	0.17973993288590603	2659	6229	7066	22880	8376	169	126	1422	42	20.1245400509482	3.51418570182717E-4	2.6019150371242843E-4	1471276	3.3488874486930222	0.4836897818103262	10873	6021	148.508
76		2286	16087	14265	289	216	2424	72	118.28521434820648	1.9461456207094677E-4	1.5554705570540111E-4	46124066	1.3320097348533368	0.18188804918662738	3840	10261	7285	17336	14204	289	216	2414	72	36.9114619080302	2.10715293186855E-4	1.5473688497370057E-4	43312791	1.5632595624920047	0.1813995138800051	4403	10217	12307	39780	14460	289	216	2460	72	19.988624360120255	2.0407742813111445E-4	1.5114568457947006E-4	4273577	3.374108818011257	0.48930581613508445	18981	10411	530.811
80		1273	8991	8024	161	120	1351	40	119.4815396700707	3.471498993265292E-4	2.7806912159633677E-4	14598785	1.3326460481099656	0.18121420389461626	2139	5764	4186	9892	8126	161	120	1333	40	36.168179646440514	3.7233486015711333E-4	2.7074161453829494E-4	14480765	1.58	0.18719101123595505	2581	5826	6786	22009	8072	161	120	1369	40	20.173887415266726	3.659647776013329E-4	2.718099789068907E-4	1348583	3.348304513810914	0.4841679766449585	10457	5810	140.459
77		1864	13208	11754	233	174	1997	58	119.36695278969957	2.3690315323010783E-4	1.8893820661302496E-4	31288139	1.3312052320149486	0.1815633758953597	3149	8454	5965	14215	11664	233	174	1973	58	36.83151718357083	2.5601335834018123E-4	1.8624158795515258E-4	29581466	1.5630992885864523	0.18156510980513454	3641	8394	10195	32594	11950	233	174	1908	58	18.715056400196175	2.5206253517465134E-4	1.8561305910564188E-4	2771757	3.4175773433892567	0.4956133600123134	15707	8555	296.706
103		2314	16493	14710	297	222	2546	74	121.86689714779602	1.8473514705285226E-4	1.4865398338638597E-4	48481026	1.3089770354906054	0.1748741250153506	3861	10605	7648	18207	14924	297	222	2520	74	36.67625523012552	2.0019579777586768E-4	1.4519763195935864E-4	48656613	1.5658530691155148	0.18257612373127113	4683	10731	12592	40688	14780	297	222	2514	74	19.965057179161374	1.9707009061020929E-4	1.4506052474065706E-4	4583462	3.3496427273828266	0.4840741189293932	19401	10633	494.894
94		2110	14966	13282	261	195	2255	65	119.14691943127963	2.11355979069826E-4	1.6760945377618036E-4	39730661	1.333930046819058	0.18286973285596256	3583	9562	6559	15898	13178	261	195	2268	65	38.45098338161305	2.276396954871645E-4	1.680628809155203E-4	35709649	1.5471019504772445	0.1762346105962097	3955	9489	10977	35536	12936	261	195	2212	65	20.15122528924114	2.2713001502799247E-4	1.6789326587710079E-4	3487848	3.3576906986473296	0.4858457676753591	16907	9301	372.588
84		1430	10077	8964	173	129	1484	43	116.85314685314685	3.1700327543511856E-4	2.4890374787988793E-4	18276052	1.3427750410509032	0.18719211822660098	2454	6433	4288	10399	8645	173	129	1480	43	38.78264925373134	3.4691251700660176E-4	2.5633457387066566E-4	15265601	1.5410597424530292	0.1741608613046232	2563	6219	7334	23903	8778	173	129	1511	43	20.60267248431961	3.3785437097640726E-4	2.5122181359246E-4	1563285	3.349709784411277	0.4859038142620232	11335	6318	164.19
107		854	6017	5378	105	78	882	26	118.0327868852459	5.243247977625631E-4	4.124899781422064E-4	6544326	1.3321952884943666	0.18436326391259816	1456	3853	2626	6299	5273	105	78	876	26	37.85224676313785	5.704399187479541E-4	4.2214419839730044E-4	5755364	1.5499130434782609	0.17704347826086955	1581	3789	4478	14551	5443	105	78	899	26	20.075926753014738	5.524816052191617E-4	4.0701059515820784E-4	590959	3.3393098782138027	0.4824086603518268	6915	3886	55.337
88		753	5255	4695	93	69	757	23	116.33466135458167	5.994603295358589E-4	4.743486056391678E-4	5072431	1.3369905956112853	0.18612852664576804	1281	3366	2374	5786	4892	93	69	813	23	38.96377422072452	6.318779016866264E-4	4.717990222437063E-4	4684670	1.5573076923076923	0.17961538461538462	1449	3500	3846	12496	4623	93	69	778	23	20.228809152366093	6.371434801093297E-4	4.7370900760883517E-4	456414	3.319733228717144	0.4774421341702628	5913	3325	44.811
81		1337	9355	8302	165	123	1373	41	116.2303664921466	3.3676819043061316E-4	2.662897056971888E-4	15800919	1.3344334433443343	0.18547854785478549	2273	5964	4270	10106	8331	165	123	1369	41	36.323185011709604	3.66370589345554E-4	2.6881736197403806E-4	14845223	1.5832037325038881	0.18818040435458788	2625	5958	7008	22838	8382	165	123	1444	41	20.605022831050228	3.556368746594925E-4	2.649303373296989E-4	1412330	3.360645020701678	0.4883416866419699	10833	6033	138.303
111		1496	10612	9474	193	144	1617	48	121.4572192513369	2.855461691846268E-4	2.299866240535497E-4	20311559	1.307809814779454	0.17529119725033415	2489	6814	4981	11938	9856	193	144	1660	48	37.24151776751656	3.0562522647504696E-4	2.2220725433431986E-4	20771926	1.562879764315964	0.18155035904989872	3057	7083	8118	26326	9613	193	144	1642	48	20.226656812022664	3.0498367753963463E-4	2.25485686876195E-4	1934864	3.3447047797563263	0.48341143392689784	12509	6915	194.992
98		1876	13141	11623	237	177	1964	59	117.27078891257996	2.3523080366054237E-4	1.880552385447983E-4	31170540	1.3242906142812598	0.1817898347365139	3153	8363	5902	14352	11928	237	177	2059	59	38.85123686885802	2.5012214033962683E-4	1.8399540298516797E-4	29179697	1.5378419452887537	0.17310030395136777	3539	8590	10165	32952	12047	237	177	2046	59	20.127889818002952	2.462710908412156E-4	1.8273533110196632E-4	2911391	3.3702082704497434	0.489284636281316	15705	8673	310.389
85		1575	11037	9773	193	144	1625	48	116.06349206349206	2.887971537231686E-4	2.2816453391514424E-4	21904317	1.3441021788129226	0.18726521412471825	2687	7024	4987	11949	9885	193	144	1653	48	37.27691999197915	3.0575381615206073E-4	2.2247682203717622E-4	20794676	1.5653938387751338	0.18225419664268586	3065	7092	8287	26835	9831	193	144	1653	48	19.946904790635937	3.0208797146924054E-4	2.23915534197177E-4	1942766	3.367622571692877	0.4882516188714154	12797	7072	198.207
102		881	6153	5500	109	81	895	27	116.23155505107832	5.161676895269396E-4	4.056427068073349E-4	6856850	1.3413978494623655	0.18649193548387097	1498	3930	2716	6527	5469	109	81	912	27	38.0338733431517	5.499750646268996E-4	4.028463279656847E-4	6170458	1.5460328088382993	0.1757616337462337	1631	3915	4526	14720	5405	109	81	926	27	20.459566946531154	5.425122125099028E-4	4.0344448109609225E-4	622217	3.329211229946524	0.4802807486631016	6969	3893	58.565
115		1659	11582	10232	201	150	1692	50	114.58710066305002	2.742756610793846E-4	2.145031845675022E-4	24040556	1.3365949119373777	0.18804483188044832	2845	7343	5125	12317	10193	201	150	1725	50	37.61951219512195	2.95236299341039E-4	2.1616852139611626E-4	21940629	1.5567837404171867	0.17935460866464611	3123	7336	8586	27972	10269	201	150	1762	50	20.521779641276495	2.8998980704251495E-4	2.1622765302986842E-4	2107644	3.358614564831261	0.48792184724689164	13279	7399	214.995
92		2310	16347	14528	289	216	2474	72	119.00432900432901	1.898447955484373E-4	1.5090164781192465E-4	47593874	1.3205192211682477	0.1802296555167249	3900	10453	7351	17544	14423	289	216	2444	72	37.0425792409196	2.0735833037988728E-4	1.5109356245285438E-4	44665798	1.5613219401859764	0.18094998743402865	4467	10357	12261	39865	14533	289	216	2515	72	20.51219313269717	2.0463828609893926E-4	1.5227894568474042E-4	4246232	3.3753919478239056	0.491032233789038	18939	10462	482.359
106		1717	12233	10909	213	159	1853	53	120.3843913803145	2.538830078059263E-4	2.007524558209628E-4	26568018	1.3159993354377804	0.17926565874730022	2912	7846	5338	12892	10672	213	159	1829	53	38.21656050955414	2.792083413258901E-4	2.0388863952942502E-4	23884476	1.543809201623816	0.17506765899864682	3215	7680	8912	28867	10522	213	159	1799	53	20.186265709156196	2.7775038497150037E-4	2.0527773671017831E-4	2341263	3.343984962406015	0.4829118250170882	13717	7570	242.512
96		955	6834	6176	125	93	1048	31	124.71204188481676	4.3981953912204707E-4	3.562552300146597E-4	8490193	1.303128689492326	0.17148760330578514	1579	4437	3208	7717	6447	125	93	1070	31	37.749376558603494	4.7025424302096655E-4	3.436797662531735E-4	8676970	1.5575120704345355	0.1797784720249929	1963	4625	5348	17357	6414	125	93	1073	31	20.063575168287212	4.692008521306909E-4	3.5006234631640594E-4	814666	3.3718059144415733	0.4892334194659776	8261	4612	85.441
119		1643	11562	10257	201	150	1714	50	116.85940353012782	2.7441719995577817E-4	2.1603983930647662E-4	23908449	1.336900303192438	0.18566078116639914	2805	7367	5128	12501	10418	201	150	1782	50	38.78705148205928	2.878664532963413E-4	2.099553957625568E-4	22353833	1.5441406930175867	0.1753438969179871	3125	7489	8444	27314	9937	201	150	1694	50	20.06158218853624	2.973708617498446E-4	2.2064995195684585E-4	2045316	3.372581234027017	0.4886820007301935	12997	7147	214.804
110		1147	8340	7574	145	108	1292	36	126.59110723626853	3.6571289762315123E-4	2.9277749576824447E-4	12467460	1.3042219541616404	0.17201447527141134	1928	5447	3649	8748	7259	145	108	1220	36	37.6541518224171	4.1506844833934876E-4	3.0373526581511305E-4	11007730	1.5562563067608477	0.17911200807265387	2205	5197	6045	19714	7243	145	108	1252	36	20.711331679073613	4.07829490566727E-4	3.0423379700094587E-4	1092807	3.3360902255639098	0.48270676691729325	9321	5221	106.722
123		856	6218	5695	109	81	961	27	126.86915887850468	4.899407509715474E-4	3.913458955942175E-4	6987329	1.3067703271784905	0.17168772270813087	1435	4074	2710	6497	5405	109	81	902	27	37.93357933579336	5.543452868424627E-4	4.0699856978372074E-4	6109138	1.5488010807159744	0.17662951705504898	1625	3877	4641	15059	5605	109	81	925	27	19.93104934281405	5.372629072019283E-4	3.993829344805239E-4	626765	3.3549342105263156	0.48519736842105265	7159	4018	59.119
89		2238	15853	14111	281	210	2398	70	119.57104557640751	1.9476150732313053E-4	1.5457661065536521E-4	44691208	1.3146557250929607	0.1789973073470958	3772	10143	7114	16949	13914	281	210	2360	70	36.955299409614845	2.1448975724670235E-4	1.560113730432741E-4	41772707	1.5599012474012475	0.18048336798336798	4309	9991	12102	39210	14318	281	210	2434	70	20.11237811931912	2.0895840480667844E-4	1.5528932771570182E-4	4037544	3.389704943160046	0.4934218929620641	18709	10301	431.176
93		1736	12291	10944	213	159	1834	53	118.54838709677419	2.5474601156313573E-4	2.0130621440194786E-4	27252286	1.3280546757792966	0.1830305050841807	2959	7863	5302	12895	10712	213	159	1854	53	38.83440211241041	2.774110818878959E-4	2.0361121347036739E-4	23680159	1.535612055901667	0.17225122074423305	3181	7723	9186	29543	10830	213	159	1777	53	19.34465490964511	2.7744956277826234E-4	2.046796549531922E-4	2308817	3.4019341703427215	0.493722429589413	14157	7752	283.427
127		1721	12266	10958	221	165	1882	55	122.1963974433469	2.4808471798137236E-4	1.994662236309484E-4	26933533	1.3082259663032705	0.17492566897918732	2870	7887	5608	13475	11115	221	165	1892	55	37.64265335235378	2.690965948291469E-4	1.9725058101953508E-4	26120879	1.5561907873244039	0.17918980725253186	3405	7995	9360	30322	11081	221	165	1882	55	20.10683760683761	2.679413147287503E-4	1.9890424204666948E-4	2498580	3.3700114961405814	0.48858597470849074	14431	7969	302.256
100		1995	14253	12758	253	189	2189	63	122.00501253132832	2.1457999223802138E-4	1.712136067905468E-4	36198896	1.3089488636363635	0.17571022727272728	3347	9168	6253	14932	12275	253	189	2102	63	37.438029745722055	2.4048132760720275E-4	1.7553248250965503E-4	32270979	1.5462135637908305	0.17577266735022704	3729	8825	10621	34421	12519	253	189	2151	63	20.252330289049997	2.375450481220923E-4	1.769870835957601E-4	3201327	3.382609962132246	0.4912612875036411	16359	9012	395.804
114		1791	12793	11431	229	171	1969	57	122.3897264098269	2.3733215344231244E-4	1.9077234756906172E-4	29260917	1.305178402273445	0.17445532049257972	2992	8238	5848	13912	11399	229	171	1919	57	36.79890560875513	2.638645254555911E-4	1.941251962016391E-4	27902286	1.5716805644644003	0.1842527261064785	3565	8192	9889	32071	11748	229	171	1989	57	20.113257154413997	2.5333355990331426E-4	1.8788965411261146E-4	2741932	3.369481022463207	0.48938807126258715	15295	8456	331.945
118		741	5357	4885	93	69	809	23	125.64102564102564	5.758841437716102E-4	4.591981105479458E-4	5219215	1.3146747352496218	0.17511346444780634	1251	3502	2452	5819	4868	93	69	780	23	36.419249592169656	6.36004777137136E-4	4.6768587524166904E-4	4988900	1.5859554873369148	0.18917881811204912	1527	3481	3929	12889	4831	93	69	827	23	21.048612878595062	6.268327689889964E-4	4.6811576243341275E-4	461231	3.334228702993093	0.4838833461243285	6083	3464	45.511
104		1048	7593	6855	137	102	1190	34	127.19465648854961	3.9467814420725663E-4	3.1978190291032636E-4	10310920	1.2954244908754298	0.16873842898704047	1733	4935	3415	8225	6837	137	102	1157	34	38.15519765739385	4.395033025919196E-4	3.250201932007229E-4	9671906	1.548783747661053	0.1764234161988773	2053	4920	5704	18575	6826	137	102	1173	34	20.56451612903226	4.309558835391291E-4	3.1977804407857033E-4	980509	3.3300636267232235	0.4809119830328738	8789	4910	101.581
97		1306	9178	8195	157	117	1337	39	116.15620214395099	3.5177734151676555E-4	2.7437203369733853E-4	15107897	1.3484745762711865	0.1889265536723164	2248	5866	3949	9632	8052	157	117	1374	39	39.073183084325144	3.73171368820826E-4	2.746152119495265E-4	13199803	1.5392267691612027	0.17363780239656343	2385	5799	6674	21523	7898	157	117	1307	39	19.583458195984417	3.805258754337797E-4	2.827012528814597E-4	1250792	3.390737723993484	0.49150570165231555	10273	5666	128.869
101		1432	10199	9137	185	138	1570	46	122.20670391061452	2.9931035721043794E-4	2.413298888186779E-4	18615082	1.3128235762644365	0.17483074472321783	2382	6575	4606	11169	9260	185	138	1594	46	38.64524533217542	3.211336610208802E-4	2.3573762631816828E-4	17794764	1.5385215525648528	0.17339574800078017	2761	6673	7623	24597	8915	185	138	1519	46	19.92653810835629	3.2841158502477404E-4	2.4369976492731306E-4	1708930	3.3651628565648393	0.48573740643334007	11691	6418	176.35
131		2287	16074	14205	277	207	2376	69	116.0034980323568	1.9572424873669217E-4	1.5335151193031227E-4	46168487	1.3267150311823852	0.18543973526791396	3921	10215	6835	16627	13791	277	207	2409	69	38.888076079005124	2.1552495988417625E-4	1.5933678459394393E-4	38790323	1.5348837209302326	0.1721193010116936	4071	9942	11717	38004	13832	277	207	2378	69	20.295297431083043	2.1200705894666242E-4	1.5709794589588986E-4	3958899	3.355616366953349	0.48605681522022415	18077	9967	440.646
108		1967	14108	12640	253	189	2194	63	123.48754448398577	2.1420101504151105E-4	1.728527076091867E-4	35584018	1.3028138837308956	0.17268961576917582	3277	9115	6565	15738	13004	253	189	2186	63	37.1972581873572	2.3379741045149945E-4	1.7147076378455143E-4	35590888	1.571166077738516	0.18431095406360423	4041	9331	10659	34503	12562	253	189	2143	63	20.10507552303218	2.3459620817948347E-4	1.7386273323681816E-4	3259382	3.366873288164913	0.4876747873720629	16419	9038	391.33
135		1084	7615	6784	133	99	1120	33	116.88191881918819	4.102434388143323E-4	3.221126671319479E-4	10462278	1.323600321457273	0.18376640771497454	1849	4865	3478	8230	6809	133	99	1109	33	36.19896492236918	4.4658108950352E-4	3.2271697258400895E-4	10126687	1.5769024651661308	0.1862272240085745	2153	4878	5696	18407	6845	133	99	1121	33	19.680477528089888	4.3526585694216317E-4	3.199531345086113E-4	946759	3.341417910447761	0.48187633262260127	8785	4898	96.303
122		2307	16400	14615	297	222	2526	74	121.41309059384481	1.8312659345470788E-4	1.4721605791980646E-4	48153977	1.2979531805368305	0.17367324427013114	3841	10527	7591	18049	14785	297	222	2501	74	36.66183638519299	2.0254108782573514E-4	1.4730650022768636E-4	47594589	1.5658232489915658	0.18237379293484904	4629	10632	12597	40944	14889	297	222	2584	74	20.512820512820515	1.97642100680564E-4	1.467517169657026E-4	4551115	3.3578092814734037	0.4873379377196171	19459	10737	516.615
112		1024	7297	6555	133	99	1116	33	123.046875	4.1900816895138084E-4	3.39540176690405E-4	9585248	1.3154811715481172	0.17461645746164575	1699	4719	3298	7960	6608	133	99	1121	33	38.44754396604002	4.5369410946154495E-4	3.360580461842397E-4	9001755	1.5456305309734513	0.175608407079646	1973	4756	5553	17873	6547	133	99	1081	33	19.466954799207635	4.5674165230244295E-4	3.401811859112609E-4	885346	3.386943121322499	0.4894928551414962	8519	4702	91.221
126		641	4619	4234	81	60	701	20	124.80499219968799	6.724673060406732E-4	5.40526709695578E-4	3884279	1.3246810382754068	0.17553893532776066	1079	3042	2062	4858	4053	81	60	649	20	36.32395732298739	7.491497454921081E-4	5.415578112963559E-4	3548432	1.5701992753623188	0.18342391304347827	1259	2888	3502	11390	4292	81	60	702	20	20.045688178183894	7.156237853005076E-4	5.331021200220527E-4	351694	3.3653426451331296	0.48843299869052814	5419	3073	33.195
130		803	5634	5050	101	75	828	25	118.18181818181819	5.499813411179405E-4	4.368211353315837E-4	5793305	1.324147933284989	0.18165337200870196	1354	3617	2521	6121	5130	101	75	863	25	38.913129710432365	5.821354925348608E-4	4.226768785645425E-4	5445568	1.5345313601127555	0.1719520789288231	1517	3682	4325	14049	5229	101	75	869	25	20.09248554913295	5.669220688401798E-4	4.178306965616545E-4	556548	3.324521739130435	0.4796521739130435	6683	3750	52.277
139		1540	10817	9593	193	144	1610	48	117.72727272727273	2.9328773257741164E-4	2.3340548320997944E-4	20893308	1.341645885286783	0.18453865336658354	2599	6891	4990	11952	9856	193	144	1657	48	37.19438877755511	3.05901878055288E-4	2.2397774416460018E-4	20682179	1.5680681607705131	0.1831820707538433	3067	7082	8257	26784	9813	193	144	1662	48	20.128375923458883	3.0393875652286813E-4	2.2619001793315678E-4	1923813	3.37397617274758	0.48994787788533134	12753	7063	198.619
134		1068	7718	6987	133	99	1179	33	124.43820224719101	4.116098348858192E-4	3.277434789656912E-4	10565005	1.3354666666666666	0.17866666666666667	1809	5020	3400	8124	6721	133	99	1117	33	37.26470588235294	4.5051834608641903E-4	3.298152808713635E-4	9581320	1.5655491959662033	0.18233851185609157	2075	4822	5936	19170	7193	133	99	1148	33	19.339622641509433	4.2761160908085823E-4	3.1554017881346946E-4	953175	3.3886292834890965	0.49247144340602284	9201	5139	98.283
105		2279	16324	14607	297	222	2554	74	123.69460289600703	1.843330167299677E-4	1.494172556897436E-4	47383863	1.3004318322023443	0.17137569401603947	3771	10539	7360	17849	14811	297	222	2572	74	38.58695652173913	2.0107196790923184E-4	1.4765503588258454E-4	45089387	1.5374648575968708	0.1729617406185063	4397	10657	12626	40906	14899	297	222	2546	74	20.164739426580073	1.9808181079394285E-4	1.4677116240529561E-4	4523416	3.3685106382978725	0.4886322188449848	19481	10723	493.805
138		964	6823	6127	117	87	1004	29	118.3609958506224	4.633018143496859E-4	3.628990191873645E-4	8445622	1.3339350180505416	0.18471720818291215	1653	4383	2953	7124	5958	117	87	994	29	38.232306129359976	5.046306408307665E-4	3.6406424014622635E-4	7439366	1.5437689969604864	0.17507598784194528	1789	4267	5013	16312	6039	117	87	1018	29	20.30720127668063	4.9575859901064E-4	3.691996567165447E-4	726483	3.3536733454766243	0.48633879781420764	7753	4345	74.451
116		1739	12206	10832	221	165	1834	55	117.99884991374353	2.4953559995877954E-4	1.992790535782989E-4	26893213	1.310797342192691	0.17890365448504983	2915	7787	5572	13218	10820	221	165	1831	55	36.66547020818378	2.7448927490703127E-4	1.9886915603565972E-4	25694818	1.559077331563226	0.18005310321938267	3369	7778	9285	30044	10937	221	165	1864	55	20.07539041464728	2.727322643042015E-4	2.0353061389898804E-4	2436949	3.3885360962566846	0.4919786096256685	14293	7875	271.387
109		1011	7087	6337	129	96	1055	32	118.29871414441148	4.364151983505862E-4	3.4735052444945133E-4	9104518	1.3254266705235753	0.18079259473531964	1693	4530	3235	7797	6474	129	96	1093	32	38.17619783616692	4.627431928308858E-4	3.382211748276163E-4	8768756	1.5474186307519642	0.17620650953984288	1951	4650	5346	17342	6396	129	96	1078	32	20.16460905349794	4.584981461936212E-4	3.368362240019028E-4	873260	3.3205309234679468	0.4775487150522451	8217	4577	83.084
143		1690	11989	10679	217	162	1832	54	121.00591715976331	2.5323476922571776E-4	2.0366435404949889E-4	25763494	1.3070560432140446	0.17555705604321403	2818	7693	5578	13391	11040	217	162	1866	54	37.45069917533166	2.7458476108823017E-4	2.023689108576537E-4	25651712	1.5669931927610825	0.182799269467043	3415	7945	9074	29470	10742	217	162	1856	54	20.45404452281243	2.731977749745437E-4	2.026552050017872E-4	2417406	3.3485637493700655	0.48462959852175375	13981	7735	254.28
113		1408	10046	9008	181	135	1541	45	122.58522727272727	3.010450271041258E-4	2.4148507957604163E-4	18050957	1.3008814102564104	0.1734775641025641	2348	6480	4672	11172	9228	181	135	1545	45	37.09332191780822	3.2909575186331884E-4	2.4157658572585992E-4	17983905	1.5716278143056386	0.18429966128710898	2869	6620	7606	24638	9012	181	135	1530	45	20.115698133052852	3.291931516975807E-4	2.4400919896957302E-4	1669415	3.3672190784155216	0.48767178658043653	11713	6471	167.383
117		731	5147	4633	93	69	761	23	119.69904240766074	5.963632576280137E-4	4.761859656887776E-4	4853733	1.3181818181818181	0.17905138339920948	1226	3318	2395	5702	4751	93	69	774	23	36.95198329853862	6.39753288138637E-4	4.682578714409786E-4	4788291	1.5701550387596899	0.18372093023255814	1471	3401	3837	12501	4692	93	69	781	23	20.35444357571019	6.40639605302205E-4	4.7643093604056647E-4	453580	3.3233556518314296	0.4785348562426152	5899	3356	41.19
121		1039	7120	6283	125	93	1002	31	110.39461020211742	4.51221120617957E-4	3.486618378910141E-4	9216158	1.349095154699358	0.19410391126678342	1789	4477	3202	7642	6323	125	93	1045	31	37.195502810743285	4.792049501434351E-4	3.4961802264713585E-4	8527954	1.5662615740740742	0.18258101851851852	1957	4534	5130	16596	6056	125	93	1030	31	20.077972709551656	4.833205862761523E-4	3.5790185773355913E-4	794602	3.3448584202682565	0.4819672131147541	7867	4351	75.494
147		1862	13159	11684	225	168	1950	56	117.34693877551021	2.408728084481175E-4	1.8850587610301373E-4	30850508	1.3310463121783878	0.18524871355060035	3196	8393	5614	13639	11322	225	168	1954	56	38.74242964018525	2.634588106950805E-4	1.9342300630261318E-4	26460259	1.5379211240619513	0.17323966150407152	3369	8161	9566	30802	11221	225	168	1868	56	19.5274932051014	2.6298334400246567E-4	1.9426337016139686E-4	2592598	3.374737860945314	0.4879819325697693	14721	8065	273.804
151		731	5260	4758	89	66	788	22	122.5718194254446	6.01591392529748E-4	4.739514534534343E-4	4962084	1.3282887077997672	0.18044237485448195	1253	3419	2230	5375	4516	89	66	750	22	38.25112107623318	6.661145834671624E-4	4.8461595723733186E-4	4211945	1.5449029126213591	0.17516181229773461	1347	3229	3790	12312	4594	89	66	762	22	20.105540897097626	6.557815630779515E-4	4.893327389988705E-4	422316	3.3479133226324236	0.48434991974317815	5851	3301	39.129
125		1431	10249	9200	181	135	1571	45	122.64150943396227	2.945091113473359E-4	2.3564193436351462E-4	18947703	1.2989630209352376	0.17393856388182352	2405	6626	4492	10863	8988	181	135	1542	45	38.51291184327694	3.318983694299547E-4	2.443980660582872E-4	16781165	1.5423557886244454	0.1744655102864058	2689	6475	7593	24520	8977	181	135	1504	45	19.807717634663504	3.2606285595221125E-4	2.4026890439615695E-4	1700620	3.343505320216824	0.48183095763902833	11673	6447	168.755
142		2400	16831	14871	297	222	2506	74	116.41666666666667	1.8482116449894504E-4	1.455437674141115E-4	50441842	1.319840019391589	0.18300812022785118	4073	10683	7579	18144	14928	297	222	2542	74	37.208074943924004	2.010210976027689E-4	1.470993510085728E-4	47447692	1.5622641509433963	0.1811320754716981	4619	10733	12526	40642	14768	297	222	2550	74	20.357656075363245	1.9916616517583625E-4	1.4788129242887237E-4	4511872	3.360625687400709	0.4872296223878773	19317	10645	497.712
120		2403	16754	14735	297	222	2478	74	114.93965875988349	1.8807688783590835E-4	1.4892841306680108E-4	50391540	1.3368680641183723	0.18655980271270037	4081	10599	7420	17988	14888	297	222	2583	74	38.463611859838274	2.0082835509024793E-4	1.4767468533233576E-4	45783788	1.5427215189873418	0.17465920155793574	4459	10728	12337	39942	14468	297	222	2502	74	20.280457161384454	2.0306278171043263E-4	1.5081554871981898E-4	4407565	3.3681188365996753	0.48782923480214707	18971	10421	499.763
129		682	4797	4321	85	63	706	21	118.18181818181819	6.452594124712723E-4	5.106909931478576E-4	4225048	1.323292320746712	0.18158676283411115	1156	3093	2125	5189	4430	85	63	731	21	39.48235294117647	6.874643244116629E-4	5.101745587809817E-4	3852320	1.5366568914956011	0.17260159195643066	1281	3174	3594	11644	4372	85	63	712	21	19.810795770728994	6.857248258484532E-4	5.070014485755674E-4	389355	3.3275862068965516	0.47897392767031116	5535	3129	35.29
146		822	5903	5332	105	78	896	26	124.5742092457421	5.190108323339063E-4	4.1727680478474504E-4	6294860	1.3113628561620323	0.1743906625472022	1376	3835	2650	6395	5338	105	78	896	26	38.18867924528302	5.631550485692084E-4	4.144715455405334E-4	5908109	1.5495896032831737	0.176812585499316	1607	3839	4550	14809	5557	105	78	917	26	20.153846153846153	5.390210743268351E-4	3.9967305302556107E-4	611711	3.3189598420013167	0.4792626728110599	7045	3992	58.704
155		1373	9762	8714	173	129	1474	43	120.97596504005827	3.2050573059402387E-4	2.5599770871640966E-4	16990953	1.3270281630937368	0.17969735182849936	2312	6271	4513	10811	8963	173	129	1489	43	37.159317527143806	3.412222911778724E-4	2.5143059351588436E-4	16805642	1.5762396694214875	0.1859504132231405	2789	6426	7253	23523	8595	173	129	1469	43	20.253688129050047	3.404478811575326E-4	2.5223734319669637E-4	1556510	3.340456735805573	0.482505761575529	11171	6190	155.414
150		1361	9674	8642	173	129	1468	43	121.23438648052903	3.12805732205702E-4	2.499702574420064E-4	16866448	1.3020204124140804	0.17558841907935846	2281	6213	4390	10542	8748	173	129	1475	43	37.630979498861045	3.461343068745778E-4	2.547395367461985E-4	15868988	1.5610012620950777	0.18068994530921328	2667	6270	7308	23690	8663	173	129	1474	43	20.16967706622879	3.420402788463414E-4	2.5432216171146217E-4	1539848	3.3631214600377595	0.487308579819593	11265	6237	154.031
159		1248	8883	7976	157	117	1340	39	121.23397435897436	3.48926583615345E-4	2.784278093521266E-4	14170542	1.3195876288659794	0.17823596792668958	2104	5737	4072	9523	7733	157	117	1268	39	35.33889980353634	3.881537035700299E-4	2.8133927428354273E-4	13561103	1.5875322240449965	0.1895945629247715	2507	5551	6639	21571	7927	157	117	1351	39	20.349450218406385	3.7374342468991616E-4	2.772828980713418E-4	1288902	3.347537227949599	0.4845360824742268	10247	5700	127.646
133		1740	12362	11029	221	165	1887	55	120.74712643678161	2.468161125070408E-4	1.9751211883440074E-4	27414629	1.3098476159265935	0.1766344420776667	2917	7936	5536	13178	10793	221	165	1837	55	37.03034682080925	2.7799710158569975E-4	2.054379711515542E-4	24775642	1.5638117806364251	0.18161814488828706	3331	7762	9292	30106	10987	221	165	1878	55	20.21093413689195	2.684353980139226E-4	1.986372883366508E-4	2504115	3.3575428194993413	0.48600131752305664	14315	7897	250.402
124		1743	12417	11085	217	162	1881	54	120.59667240390132	2.526192435163106E-4	2.009350935079659E-4	27428713	1.3273927392739273	0.18036303630363038	2951	7980	5788	13679	11214	217	162	1842	54	35.76364892881824	2.719939610151387E-4	1.9886083516063247E-4	27526831	1.5949450188741179	0.19218775644181849	3625	8045	9021	29293	10672	217	162	1843	54	20.43010752688172	2.760462702281272E-4	2.0525304075140992E-4	2385458	3.3562457569585877	0.4859131025118805	13883	7684	265.288
163		1525	10831	9660	189	141	1627	47	119.80327868852459	2.9474367033035127E-4	2.342226368056508E-4	20817641	1.3419391853126792	0.18340026773761714	2587	6950	4738	11540	9605	189	141	1653	47	38.9193752638244	3.1111772167398654E-4	2.281569545812743E-4	18977902	1.5376647834274952	0.17306967984934088	2855	6922	8187	26488	9756	189	141	1618	47	19.763038964211553	3.0754820784736003E-4	2.2829908293518571E-4	1866231	3.3787593984962405	0.49022556390977445	12655	7011	190.881
128		1464	10425	9316	185	138	1584	46	121.31147540983606	2.982932067271936E-4	2.383514745288947E-4	19392588	1.323321554770318	0.17864153906556735	2461	6699	4975	11667	9523	185	138	1545	46	35.095477386934675	3.2216127157156754E-4	2.3500280718842732E-4	20183073	1.6069005621244428	0.19616204690831557	3131	6824	7907	25471	9312	185	138	1547	46	19.5649424560516	3.219585399870046E-4	2.3880143971115745E-4	1728076	3.401143307707471	0.4937906564163217	12181	6684	192.571
137		1728	12067	10661	217	162	1790	54	116.31944444444444	2.6083455717663604E-4	2.0725200723799018E-4	26029842	1.3355589796267762	0.18455743879472694	2914	7659	5443	13236	11005	217	162	1900	54	38.710270071651664	2.7136230432813754E-4	1.9905123016046342E-4	24922458	1.539815728858177	0.17374136229022705	3281	7925	9032	29426	10736	217	162	1874	54	20.74844995571302	2.7308020674736975E-4	2.0299231717238654E-4	2422104	3.339606788774996	0.48344815997311374	13923	7737	242.2
154		2124	14916	13194	265	198	2229	66	117.18455743879473	2.0900212972056352E-4	1.6583076493190135E-4	39816355	1.3260481099656358	0.18281786941580755	3591	9486	7042	16632	13582	265	198	2251	66	35.685884691848905	2.2554797183339573E-4	1.6673316388283378E-4	39994144	1.6007921332969135	0.19407265774378585	4399	9752	11183	36265	13208	265	198	2267	66	20.271841187516767	2.2381459342517914E-4	1.6626601418622623E-4	3567852	3.370548604427334	0.4890691599065035	17241	9508	390.187
141		1354	9759	8790	177	132	1528	44	125.7016248153619	3.0730232547953023E-4	2.4985193740292567E-4	17064236	1.298455200823893	0.16972193614830072	2238	6339	4540	10790	8868	177	132	1483	44	36.67400881057269	3.423384659793835E-4	2.533012999472037E-4	16713910	1.5772831287705429	0.18618681090076972	2775	6368	7607	24584	9028	177	132	1502	44	19.744971736558433	3.2872393330197943E-4	2.4312316261983436E-4	1640115	3.3666599475912116	0.48740173352146743	11741	6489	161.153
132		1667	11694	10367	205	153	1724	51	116.55668866226755	2.677271955454277E-4	2.109480238863564E-4	24614538	1.3270847932725998	0.1844779257182901	2838	7443	5116	12218	10049	205	153	1709	51	37.37294761532447	2.9588214772393917E-4	2.1566593662782104E-4	21671922	1.5512107623318385	0.17739910313901344	3073	7226	8488	27484	9999	205	153	1716	51	20.216776625824693	2.920749295167862E-4	2.1583453050373773E-4	2137505	3.34719222462203	0.48326133909287255	13041	7187	227.575
145		712	5110	4656	89	66	767	22	123.45505617977528	6.156196739709408E-4	4.896209336488603E-4	4763253	1.335076427996782	0.17940466613032985	1205	3328	2242	5484	4638	89	66	773	22	39.51828724353256	6.577052585371599E-4	4.917752289247616E-4	4237305	1.5441058540497192	0.1752205292702486	1357	3334	3793	12370	4636	89	66	774	22	20.406011073029266	6.513956320326087E-4	4.852260701095487E-4	426333	3.3383818254284576	0.4830609804703069	5867	3325	39.196
158		1506	10691	9546	193	144	1632	48	121.11553784860558	2.8430878825323763E-4	2.2856585085225475E-4	20537678	1.3080999242997728	0.17562452687358063	2514	6875	4801	11548	9539	193	144	1628	48	38.03374297021454	3.1111441538068376E-4	2.2734636156954843E-4	19268300	1.543035107587769	0.1747829369573424	2877	6869	8123	26284	9596	193	144	1628	48	20.041856456974024	3.082810052044736E-4	2.2800992205475356E-4	1902321	3.3659920559863816	0.487232835256289	12509	6891	192.972
167		2107	14858	13176	261	195	2224	65	117.8452776459421	2.1304783659184586E-4	1.6880485556395095E-4	39302593	1.3367148415786547	0.184130072262368	3575	9473	6640	15869	13036	261	195	2210	65	37.183734939759034	2.307147973400472E-4	1.7041180340111666E-4	36062000	1.566040381379697	0.18241727425687043	4037	9383	11027	35599	12961	261	195	2189	65	19.851274145279767	2.2635604828272562E-4	1.668013977634638E-4	3495897	3.361296605453534	0.4859488035614914	16973	9310	367.55
136		1176	8294	7377	145	108	1227	36	118.11224489795919	3.793459397907635E-4	2.989484119734994E-4	12330169	1.3288789903489235	0.1836179163573373	2001	5294	3724	8884	7328	145	108	1217	36	37.08378088077336	4.135974487211435E-4	3.049067521501832E-4	11417764	1.5714643931795387	0.18430290872617855	2279	5266	6150	19949	7336	145	108	1237	36	20.11382113821138	4.043529403267086E-4	3.002396399263201E-4	1098135	3.3541821792007944	0.4854802680565897	9485	5278	114.644
149		1153	8227	7372	145	108	1249	36	121.59583694709454	3.722329192097503E-4	2.96158881816587E-4	12084135	1.3064476587398872	0.17626869330718314	1943	5306	3616	8779	7305	145	108	1248	36	38.799778761061944	4.0948961165516686E-4	3.00519113781072E-4	11009453	1.5385760357231457	0.17340610270404366	2171	5261	6278	20359	7538	145	108	1253	36	19.95858553679516	4.004375659750666E-4	2.9730933404028105E-4	1104621	3.3754892367906066	0.49021526418786693	9711	5410	107.791
162		1303	9281	8330	165	123	1413	41	121.41212586339218	3.2631340539721125E-4	2.601499594853416E-4	15577939	1.3037535257105664	0.1755261444998915	2189	5980	4207	10021	8246	165	123	1383	41	36.938435940099836	3.6373938875724116E-4	2.640166445508516E-4	14721500	1.5625548726953469	0.18129938542581212	2563	5922	6973	22559	8306	165	123	1389	41	19.919690233758782	3.5344922261960427E-4	2.6020236274565324E-4	1442579	3.3305121527777777	0.4798177083333333	10739	5964	141.471
140		1210	8610	7725	153	114	1303	38	121.32231404958678	3.6177128682729313E-4	2.9014046024378794E-4	13343795	1.3277010947168015	0.1789623988576868	2034	5558	3961	9510	7908	153	114	1312	38	37.4905326937642	3.8403514993240066E-4	2.8027395134291877E-4	13146267	1.565429234338747	0.18236658932714617	2437	5667	6488	21012	7759	153	114	1292	38	19.91368680641184	3.863337532469901E-4	2.8702501586136625E-4	1209902	3.3655939422621866	0.48722195929957407	9997	5569	128.288
153		1279	9002	8020	161	120	1344	40	118.4519155590305	3.424539832835933E-4	2.722328024880348E-4	14618543	1.3177295341474446	0.18023518769787428	2155	5759	4159	10029	8332	161	120	1395	40	37.84563597018514	3.6517990806294844E-4	2.694633091526338E-4	14381437	1.5655157149181054	0.18238158477202301	2555	5984	6927	22364	8255	161	120	1360	40	19.63331889706944	3.6277643574337285E-4	2.677197732355114E-4	1352783	3.3733066844326003	0.4885631801021541	10687	5913	134.402
144		1022	7351	6628	133	99	1132	33	125.63600782778865	4.130575461628041E-4	3.3427191368110053E-4	9725474	1.307777164920022	0.17209045780474352	1694	4765	3367	8168	6812	133	99	1154	33	38.55063855063855	4.4292301196659017E-4	3.2525351335257037E-4	9527198	1.5481620606385833	0.17654950362221625	2043	4895	5729	18511	6848	133	99	1127	33	19.67184499912725	4.4291653403328636E-4	3.293034239977422E-4	914447	3.39	0.4921621621621622	8843	4910	96.733
166		1322	9224	8178	157	117	1323	39	113.99394856278366	3.573441307998796E-4	2.773217112939717E-4	15243203	1.3657702825888787	0.19416590701914313	2289	5850	3991	9392	7657	157	117	1270	39	36.081182660987224	3.9163895547781664E-4	2.869661997010356E-4	12943729	1.5770328102710414	0.185924869234427	2427	5501	6551	21202	7745	157	117	1316	39	20.08853610135857	3.844168827761503E-4	2.870368396723939E-4	1237336	3.3778616945952327	0.48949728581543545	10075	5575	123.653
148		765	5476	4961	97	72	824	24	123.52941176470588	5.500503792319816E-4	4.393669311720647E-4	5511306	1.2996336996336997	0.17399267399267399	1285	3557	2392	5948	5096	97	72	869	24	41.01170568561873	5.944127855346978E-4	4.4211258499373513E-4	4954292	1.5155122655122655	0.16558441558441558	1429	3670	4193	13610	5099	97	72	836	24	19.937991891247318	5.956515537493165E-4	4.410916904376162E-4	504247	3.3598981077147014	0.4868995633187773	6485	3645	51.045
171		2024	14340	12747	253	189	2169	63	119.31818181818181	2.1637766599014134E-4	1.7212382403952278E-4	36765667	1.3214641788918957	0.18031619427431989	3419	9170	6214	14989	12372	253	189	2148	63	38.28451882845188	2.394147587904051E-4	1.765242495958305E-4	31889900	1.538360560093349	0.17313302217036172	3691	8921	10842	34997	12766	253	189	2143	63	19.765725880833795	2.3134326575547856E-4	1.7064555974171026E-4	3318949	3.3686968838526914	0.4878186968838527	16723	9174	343.382
170		1174	8135	7211	145	108	1184	36	113.79897785349233	3.843251877154552E-4	3.034834724216073E-4	12113656	1.3342597271349166	0.1869631126831733	1996	5169	3628	8710	7209	145	108	1221	36	37.81697905181918	4.1433653802133024E-4	3.029725585237118E-4	10970046	1.5499119939653005	0.17676640683932612	2187	5180	6209	20127	7439	145	108	1241	36	19.987115477532615	4.0149847390157453E-4	2.9753646493248595E-4	1106530	3.3584255842558424	0.4863468634686347	9587	5340	109.956
152		1242	9015	8171	161	120	1414	40	127.13365539452496	3.332754541785097E-4	2.693148977832541E-4	14514710	1.2954898911353032	0.16885136636303044	2062	5883	4243	10059	8274	161	120	1361	40	36.20080131982088	3.6562572145618403E-4	2.656723195285966E-4	15020799	1.5811495265360054	0.18762387139396608	2639	5942	6765	22050	8090	161	120	1396	40	20.635624538063563	3.616672074445183E-4	2.683149576776984E-4	1374447	3.3212538906180527	0.4797687861271676	10441	5831	176.948
174		1187	8454	7597	149	111	1278	37	121.1457455770851	3.6550463308646097E-4	2.8933038759796275E-4	12823028	1.3161057692307692	0.178125	2004	5441	4027	9399	7708	149	111	1227	37	34.740501614104794	3.9675373470486743E-4	2.858870723284456E-4	13485444	1.6034646416706217	0.1950640721404841	2543	5522	6261	20252	7454	149	111	1246	37	19.900974285257945	3.99507206242833E-4	2.956777589452068E-4	1139723	3.3621873467385974	0.48602256007846983	9633	5343	153.158
157		2204	15491	13698	273	204	2314	68	116.96914700544464	2.0122535988215275E-4	1.5930199426881597E-4	43022170	1.3255321962184319	0.1832606108687029	3739	9849	6838	16478	13578	273	204	2347	68	37.93506873354782	2.186908868504895E-4	1.599434191167453E-4	38971268	1.5452497681197828	0.1755664502451305	4115	9788	11880	38474	14085	273	204	2374	68	19.983164983164983	2.1261109958598846E-4	1.574439406449258E-4	3864532	3.387611998441761	0.4930528502791845	18387	10119	489.473
156		1454	10433	9352	189	141	1622	47	124.34662998624484	2.8767028892508504E-4	2.3283320406595903E-4	19477392	1.297495183044316	0.17109826589595376	2410	6743	4669	11231	9259	189	141	1589	47	38.1023773827372	3.1898958442978223E-4	2.3330970737331082E-4	18173913	1.5402521823472357	0.17381183317167798	2785	6670	7912	25616	9359	189	141	1590	47	20.096056622851364	3.137827534965933E-4	2.3175254717462576E-4	1838208	3.3499324454738466	0.48388342018915265	12175	6721	258.831
175		2235	15769	13978	273	204	2351	68	117.27069351230425	2.0079715825537943E-4	1.5830863358379645E-4	44464024	1.3357292211186618	0.18518034500784109	3817	10048	7228	16988	13806	273	204	2281	68	35.37631433314886	2.1912744883386564E-4	1.5892835561647327E-4	42858923	1.5933877766069546	0.1916491043203372	4505	9918	11302	36654	13283	273	204	2310	68	20.438860378694038	2.1999127495109642E-4	1.632570210668252E-4	3757836	3.3535545023696685	0.48517264725795534	17381	9571	558.841
178		2034	14645	13155	265	198	2298	66	125.07374631268436	2.0390214057705965E-4	1.651474454260662E-4	38274904	1.2936106170474757	0.1696538514160624	3366	9483	6778	16306	13436	265	198	2291	66	37.621717320743585	2.2214486971041498E-4	1.6159284721519877E-4	38595783	1.5541700187717886	0.17873424510592653	4133	9676	11314	36651	13371	265	198	2271	66	20.072476577691354	2.2133459203553296E-4	1.64187841329184E-4	3620069	3.369742198100407	0.4887381275440977	17465	9626	574.668
161		1958	13970	12464	245	183	2131	61	121.04187946884576	2.2320667616646168E-4	1.7755867042246472E-4	34552207	1.3218306769995614	0.17897353414241848	3306	8970	6202	14840	12206	245	183	2077	61	37.310544985488555	2.4364706838677348E-4	1.7688093636496782E-4	32118704	1.5534767236299352	0.17840306423099586	3757	8780	10173	33034	12011	245	183	2086	61	20.50525901897179	2.404327510756752E-4	1.7734795430887073E-4	3125223	3.3209309220278684	0.4788022531870738	15657	8653	472.866
182		897	6367	5736	117	87	967	29	122.51950947603122	4.720275474511322E-4	3.801143061984435E-4	7358585	1.30218561925879	0.17326575863161228	1485	4110	2896	7037	5894	117	87	1002	29	38.98480662983425	5.065470224394777E-4	3.696023977115546E-4	7130891	1.5311445228597729	0.17091132249156182	1731	4235	5005	16238	6062	117	87	996	29	19.9000999000999	5.008541617571887E-4	3.730150043031938E-4	719010	3.36455463728191	0.48729721456994185	7725	4345	113.18
165		875	6236	5628	113	84	950	28	122.85714285714286	4.902255496409951E-4	3.961859300863439E-4	7049319	1.3154296875	0.1748046875	1457	4049	2905	7030	5870	113	84	976	28	38.31325301204819	5.18665491521279E-4	3.81409664445378E-4	7117350	1.557608015028178	0.1797119599248591	1781	4219	4822	15747	5851	113	84	993	28	20.5931148900871	5.097260435397786E-4	3.796833700306505E-4	687747	3.330834114339269	0.4823492658544205	7461	4212	89.676
186		645	4556	4128	81	60	676	20	119.53488372093024	6.857842643038277E-4	5.473965781693428E-4	3819355	1.3355855855855856	0.18153153153153154	1089	2955	2065	4921	4119	81	60	667	20	37.23970944309927	7.398098183141517E-4	5.430937317839615E-4	3556314	1.5662325999101931	0.18230803771890436	1261	2946	3494	11311	4273	81	60	683	20	19.54779622209502	7.064637536332631E-4	5.233167342916535E-4	361105	3.3316039775183746	0.4798962386511025	5393	3062	34.106
179		1705	12091	10756	217	162	1843	54	120.41055718475073	2.528590789668882E-4	2.0206596540979098E-4	26010265	1.3083877448518333	0.17662816005357443	2857	7748	5464	13091	10772	217	162	1838	54	37.48169838945827	2.758055227277192E-4	2.005691255706378E-4	24898970	1.5512692050768202	0.17752171008684034	3301	7749	9222	29965	10954	217	162	1879	54	20.375189763608763	2.676425839496747E-4	1.981169998368522E-4	2479833	3.3399605652316793	0.4834045349983569	14241	7892	355.226
169		1033	7311	6570	133	99	1107	33	120.90997095837366	4.131880685599216E-4	3.3069117973058586E-4	9716791	1.3063312137130219	0.17555985623444845	1721	4702	3475	8396	6992	133	99	1160	33	37.9568345323741	4.360315805450888E-4	3.215780400787991E-4	10141240	1.5676959619952493	0.18316178411190287	2151	5025	5811	18708	6949	133	99	1120	33	19.273791085871622	4.4079659035979504E-4	3.2696383681382775E-4	916778	3.406811477607938	0.4950388844194154	8975	4975	93.834
173		757	5344	4810	97	72	796	24	120.60766182298546	5.702326140175423E-4	4.5613272231574095E-4	5202464	1.310723758999621	0.17696097006441833	1265	3447	2422	5938	5024	97	72	845	24	39.76052848885219	5.972418286458898E-4	4.363130026719634E-4	5067777	1.5278985507246376	0.16992753623188406	1457	3606	4225	13660	5139	97	72	822	24	19.45562130177515	5.975308772450136E-4	4.4518926043462945E-4	501483	3.37836853605244	0.48943918426802624	6531	3683	68.109
183		1129	8000	7149	141	105	1198	35	119.75199291408326	3.8249750363011296E-4	3.0419612549637486E-4	11614184	1.3104145601617796	0.1787158746208291	1909	5141	3553	8665	7283	141	105	1233	35	39.065578384463834	4.145013949485119E-4	3.02324415883214E-4	10727650	1.539136979427998	0.173607626693427	2149	5218	5999	19569	7207	141	105	1235	35	20.586764460743456	4.122363832740879E-4	3.062463986215131E-4	1052243	3.3426767676767675	0.4845959595959596	9277	5184	123.35
160		2263	15801	13952	285	213	2361	71	116.12903225806451	1.9628268406355546E-4	1.564893962523036E-4	44952286	1.3271428571428572	0.18298701298701298	3809	10032	7141	17046	13980	285	213	2392	71	37.207673995238764	2.1213444159704975E-4	1.5457233762629924E-4	42159351	1.552668810289389	0.1780064308681672	4297	10061	12285	39792	14505	285	213	2464	71	20.056980056980056	2.057077472408702E-4	1.528852221551256E-4	4164112	3.387903935621778	0.49289576260530615	18991	10443	655.972
177		765	5362	4805	93	69	774	23	116.47058823529412	5.910020818732737E-4	4.6639448362955363E-4	5311806	1.3423076923076922	0.18730769230769231	1311	3445	2266	5439	4553	93	69	762	23	38.261253309797	6.537006514468762E-4	4.81318219302438E-4	4282801	1.5366146458583434	0.172468987595038	1341	3265	3880	12510	4658	93	69	756	23	19.484536082474225	6.447965726462803E-4	4.7791256737986476E-4	448196	3.354685646500593	0.48279952550415184	5955	3333	40.158
164		1088	7718	6955	137	102	1161	34	120.40441176470588	4.0016177772366835E-4	3.189337476571104E-4	10831345	1.3224188011618696	0.17903353578030104	1833	4984	3472	8268	6831	137	102	1139	34	37.03917050691244	4.385300078987591E-4	3.194179113561213E-4	10029479	1.5599255912835504	0.18044113739038	2107	4902	5690	18378	6726	137	102	1130	34	19.85940246045694	4.378899810503279E-4	3.2488919209790494E-4	960958	3.351278600269179	0.4831763122476447	8735	4837	120.423
190		2024	14485	12948	261	195	2248	65	123.12252964426878	2.0788321635923244E-4	1.6778720980580296E-4	37515304	1.3000277932184547	0.1725958866036687	3367	9337	6637	15849	13038	261	195	2209	65	37.09507307518457	2.301022971375451E-4	1.6833457697510026E-4	36315232	1.5629619299958164	0.18128573420722355	4037	9368	10914	35283	12807	261	195	2191	65	20.07513285688107	2.2646440514393503E-4	1.667824063454625E-4	3516990	3.340582740833682	0.48180677540777916	16789	9216	492.29
187		1819	12920	11527	229	171	1960	57	120.39582188015393	2.3684390374235193E-4	1.887765885882355E-4	29974521	1.3103934786016618	0.17761404608872863	3062	8291	5689	13696	11296	229	171	1942	57	38.055897345754964	2.6205543707526023E-4	1.9196676573892568E-4	26906093	1.543322163714696	0.1748843146641136	3405	8131	9621	31059	11311	229	171	1909	57	19.842012264837336	2.584598736022774E-4	1.9049121287231368E-4	2704003	3.349904701397713	0.4833227445997459	14795	8130	379.343
181		2369	16479	14492	281	210	2383	70	112.66357112705784	1.9467990096469392E-4	1.5120038201358056E-4	48857854	1.3442602361215774	0.19178598342125094	4101	10400	7288	17387	14263	281	210	2406	70	36.77277716794731	2.1102483707954514E-4	1.540024400714259E-4	43944112	1.5717017208413002	0.18444869343530912	4485	10255	11866	38517	14026	281	210	2415	70	20.352266981291084	2.0942747142694467E-4	1.551809463610145E-4	4065077	3.355295328786514	0.48616651653583837	18303	10100	622.103
168		2373	16802	14910	297	222	2548	74	119.0897597977244	1.838018863027213E-4	1.4624784066881306E-4	50342440	1.31670098098583	0.17960518348068305	4006	10739	7576	18151	14921	297	222	2544	74	37.28880675818374	2.0012560563479373E-4	1.4618688218100544E-4	47711765	1.55867748576965	0.1800896209276977	4613	10745	12627	41045	14964	297	222	2587	74	20.48784350993902	1.968328291125049E-4	1.4593902066631912E-4	4573506	3.3550217286335102	0.4868421052631579	19509	10780	740.293
194		2246	15751	13911	277	207	2340	69	116.29563668744434	2.0068385348054156E-4	1.584249012573509E-4	44192630	1.3349482781196804	0.18541312033521015	3818	9999	7165	17101	14045	277	207	2369	69	36.84577808792743	2.1443574502561012E-4	1.5602498643279463E-4	42614971	1.5685311975197003	0.18343883219222323	4401	10098	11696	37848	13763	277	207	2348	69	20.075239398084815	2.1369338413872166E-4	1.5837139429434094E-4	3922465	3.363815271582262	0.48714248228811335	18017	9911	606.463
191		2198	15427	13654	273	204	2300	68	116.83348498635122	2.0403852670444625E-4	1.616024535516844E-4	42487264	1.3331998398077693	0.184221065278334	3725	9815	7000	16761	13796	273	204	2340	68	37.2	2.178433772787805E-4	1.581267215084706E-4	40892679	1.5603301454211975	0.1806629110441504	4277	9923	11916	38604	14139	273	204	2380	68	19.973145350788855	2.1238233987938196E-4	1.5780657149191477E-4	3865700	3.391524105754277	0.4939087610160705	18453	10173	600.703
198		1427	10075	8965	181	135	1519	45	119.41135248773651	3.0361417506025314E-4	2.4269666234913366E-4	18305914	1.312588116817724	0.1782477341389728	2396	6452	4693	11195	9215	181	135	1535	45	36.906030257830814	3.282029919216404E-4	2.3952652721936568E-4	18307212	1.571513353115727	0.18437190900098913	2889	6624	7769	25005	9179	181	135	1505	45	19.371862530570215	3.2947920924840146E-4	2.446963406521035E-4	1647682	3.4122152791775853	0.4956661963313848	11967	6582	238.915
195		1561	11083	9904	197	147	1677	49	120.56374119154388	2.769915636859977E-4	2.208266378458957E-4	22052103	1.3128317774116787	0.1777411678564891	2626	7120	5035	12003	9878	197	147	1663	49	36.92154915590864	3.056903397454705E-4	2.2446768617203787E-4	20799955	1.5684931506849316	0.18326545723805998	3071	7098	8267	26847	9816	197	147	1685	49	20.382242651505987	2.983236144616927E-4	2.211214578707811E-4	2024818	3.335655362053162	0.48194317140238313	12741	7072	280.857
185		2271	16033	14236	293	219	2457	73	119.7710259797446	1.898354803732418E-4	1.5302027344126293E-4	45877626	1.3112968591691996	0.17641843971631205	3776	10260	7447	17786	14596	293	219	2484	73	37.08876057472808	2.0542833075920237E-4	1.503525445732797E-4	45635027	1.5626010195200797	0.18127564341663557	4525	10501	12515	40565	14799	293	219	2525	73	20.175789053136235	1.9952846927697628E-4	1.477026762601566E-4	4447782	3.3627582834087297	0.48771243428291966	19325	10650	637.702
199		1031	7412	6685	133	99	1144	33	124.73326867119302	4.116606520394788E-4	3.3265698836336144E-4	9856898	1.3103825136612022	0.17295081967213113	1717	4815	3394	8182	6804	133	99	1143	33	37.94932233352976	4.432136398961908E-4	3.2333280282754073E-4	9698334	1.5538008565310493	0.17853319057815845	2069	4886	5763	18670	6946	133	99	1144	33	19.850772167273988	4.3605421463373256E-4	3.22994164346939E-4	933029	3.3737346830047947	0.48961108151305277	8911	4973	110.512
189		926	6641	5999	117	87	1008	29	123.4341252699784	4.653479234297163E-4	3.708254960254649E-4	7945882	1.3179031269160024	0.17657878602084612	1558	4299	2971	7169	6005	117	87	999	29	38.16896667788623	5.054066907407847E-4	3.710269698641541E-4	7397441	1.5542944785276074	0.1785276073619632	1807	4300	4940	16101	5953	117	87	1013	29	20.506072874493928	4.996723800609141E-4	3.7261131241337286E-4	723120	3.3388531125421648	0.4832873351732597	7627	4286	87.529
172		2165	15167	13413	265	198	2247	66	115.61200923787528	2.1003970026169238E-4	1.647595771298707E-4	40827642	1.3393757666621235	0.18686111489709692	3694	9622	6562	15717	12914	265	198	2222	66	37.64096312099969	2.287919647649139E-4	1.6706414707984648E-4	35630489	1.5446329254727476	0.17533370411568408	3917	9297	11271	36447	13303	265	198	2251	66	19.97160855292343	2.2219636374866584E-4	1.6441918339079554E-4	3610962	3.3674386920980925	0.487874659400545	17377	9566	527.451
176		1064	7453	6642	133	99	1098	33	117.19924812030075	4.150146123825805E-4	3.2779835527261414E-4	10072404	1.320109439124487	0.18221614227086183	1799	4755	3460	8244	6823	133	99	1123	33	36.820809248554916	4.4518753280040107E-4	3.26518144446696E-4	9954135	1.5745425188374595	0.18541442411194833	2135	4900	5502	17793	6547	133	99	1099	33	19.974554707379134	4.51454594054803E-4	3.344067077147343E-4	907576	3.343880099916736	0.48182070496808216	8445	4700	90.715
193		1255	9185	8328	161	120	1445	40	128.76494023904382	3.291566678713536E-4	2.653425516675759E-4	14956584	1.2952464020933274	0.16855647623201048	2094	6006	4126	9827	8098	161	120	1350	40	36.912263693650026	3.7493028099909464E-4	2.7620253585572657E-4	13921605	1.5729545454545455	0.18477272727272728	2521	5813	6707	21670	7917	161	120	1334	40	19.889667511555093	3.7132581603629543E-4	2.753741837113777E-4	1327171	3.3527397260273974	0.48356164383561645	10305	5695	123.527
180		1222	8721	7824	157	117	1332	39	122.83142389525368	3.5573560132928957E-4	2.8649068821226043E-4	13583400	1.3244005641748942	0.1767748001880583	2038	5625	4042	9655	7972	157	117	1324	39	37.159821870361206	3.806659717968811E-4	2.797433402528369E-4	13476297	1.5712638376383763	0.1842712177121771	2477	5721	6639	21455	7855	157	117	1315	39	19.807199879499926	3.8038379167924157E-4	2.834183220310576E-4	1251236	3.3830729773840056	0.4903240848682677	10221	5648	124.641
197		1278	8950	7935	161	120	1331	40	117.21439749608764	3.4530665799877773E-4	2.7507515394518804E-4	14443389	1.3212411590234998	0.1816107688797627	2152	5706	4051	9733	8066	161	120	1363	40	37.817822759812394	3.718579743619348E-4	2.7227064416058855E-4	13670406	1.5516230838593328	0.1776375112714157	2447	5796	6757	21800	7996	161	120	1326	40	19.624093532632827	3.697244936314956E-4	2.7329246633612744E-4	1331601	3.358782094978414	0.48443535560099976	10381	5737	120.85
184		1988	13926	12333	241	180	2049	60	115.29175050301811	2.3235642816244422E-4	1.824832459529112E-4	34637001	1.3549257759784075	0.18983355825461087	3407	8848	6004	14419	11859	241	180	2040	60	37.79147235176549	2.5057349637882734E-4	1.8386959094987202E-4	29786206	1.5477096332369502	0.1763810683305433	3599	8545	10418	33658	12308	241	180	2066	60	19.831061624112113	2.4190796482550063E-4	1.7885849334781887E-4	3012928	3.380156735176697	0.4907585391098625	16097	8845	303.255
188		877	6162	5517	109	81	906	27	117.787913340935	5.072714005978596E-4	4.0150514151050234E-4	6931876	1.3303393213572854	0.18330006653359945	1488	3953	2794	6743	5645	109	81	938	27	38.04581245526128	5.389631407520188E-4	3.97586320124054E-4	6538528	1.5590448151782794	0.18024206738632648	1709	4049	4672	15196	5646	109	81	942	27	20.16267123287671	5.320436171353069E-4	3.951680439669565E-4	633004	3.3513513513513513	0.4855096059915337	7221	4051	59.383
192		1153	8275	7454	145	108	1265	36	122.98352124891588	3.767212745441093E-4	2.9984363137835064E-4	12130526	1.3198818897637796	0.17691929133858267	1944	5358	3712	9010	7530	145	108	1269	36	38.4698275862069	4.00483341151995E-4	2.940459121919641E-4	11681063	1.5495757575757576	0.1772121212121212	2267	5418	6102	19735	7255	145	108	1213	36	19.87872828580793	4.072083545079349E-4	3.0084692916331455E-4	1094709	3.348337084271068	0.4831207801950488	9391	5208	104.019
196		667	4728	4280	81	60	690	20	119.1904047976012	6.618971895749898E-4	5.216158704475461E-4	4120192	1.3275936289281103	0.1829530779164873	1144	3069	2041	4974	4224	81	60	700	20	39.14747672709456	7.226882709699292E-4	5.376896079715193E-4	3521373	1.5449339207048458	0.17533039647577092	1237	3027	3440	11188	4219	81	60	692	20	20.11627906976744	7.138801044841254E-4	5.287357649577878E-4	357536	3.3213817227809357	0.47879317883690425	5309	3021	32.794
